<?xml version="1.0" encoding="UTF-8" standalone="no"?>
<svg
   xmlns:dc="http://purl.org/dc/elements/1.1/"
   xmlns:cc="http://creativecommons.org/ns#"
   xmlns:rdf="http://www.w3.org/1999/02/22-rdf-syntax-ns#"
   xmlns:svg="http://www.w3.org/2000/svg"
   xmlns="http://www.w3.org/2000/svg"
   xmlns:sodipodi="http://sodipodi.sourceforge.net/DTD/sodipodi-0.dtd"
   xmlns:inkscape="http://www.inkscape.org/namespaces/inkscape"
   height="1399.2925mm"
   viewBox="0 0 633.5465 1399.2925"
   width="633.54651mm"
   version="1.1"
   id="svg146"
   sodipodi:docname="IntegratedHingeBox_rearanged.svg"
   inkscape:version="1.0.2 (e86c870879, 2021-01-15)">
  <defs
     id="defs150" />
  <sodipodi:namedview
     pagecolor="#ffffff"
     bordercolor="#666666"
     borderopacity="1"
     objecttolerance="10"
     gridtolerance="10"
     guidetolerance="10"
     inkscape:pageopacity="0"
     inkscape:pageshadow="2"
     inkscape:window-width="1918"
     inkscape:window-height="1078"
     id="namedview148"
     showgrid="false"
     inkscape:zoom="1.3307686"
     inkscape:cx="1751.8536"
     inkscape:cy="1733.4024"
     inkscape:window-x="0"
     inkscape:window-y="0"
     inkscape:window-maximized="0"
     inkscape:current-layer="svg146"
     fit-margin-top="0"
     fit-margin-left="0"
     fit-margin-right="0"
     fit-margin-bottom="0" />
  <!--
IntegratedHingeBox - Box with lid and integraded hinge

Created with Boxes.py (https://festi.info/boxes.py)
Creation date: 2022-04-16 15:36:15
Command line (remove spaces between dashes): boxes IntegratedHingeBox - -FingerJoint_angle=90.0 - -FingerJoint_style=rectangular - -FingerJoint_surroundingspaces=2.0 - -FingerJoint_edge_width=1.0 - -FingerJoint_extra_length=0.0 - -FingerJoint_finger=2.0 - -FingerJoint_play=0.0 - -FingerJoint_space=2.0 - -FingerJoint_width=1.0 - -ChestHinge_hinge_strength=1.0 - -ChestHinge_pin_height=2.0 - -ChestHinge_play=0.1 - -x=200.0 - -y=200.0 - -h=200.0 - -outside=0 - -outside=1 - -lidheight=40.0 - -thickness=4.0 - -format=svg - -tabs=0.0 - -debug=0 - -labels=0 - -labels=1 - -reference=100 - -inner_corners=loop - -burn=0.15
Url: http://www.festi.info/IntegratedHingeBox?FingerJoint_angle=90.0&FingerJoint_style=rectangular&FingerJoint_surroundingspaces=2.0&FingerJoint_edge_width=1.0&FingerJoint_extra_length=0.0&FingerJoint_finger=2.0&FingerJoint_play=0.0&FingerJoint_space=2.0&FingerJoint_width=1.0&ChestHinge_hinge_strength=1.0&ChestHinge_pin_height=2.0&ChestHinge_play=0.1&x=200.0&y=200.0&h=200.0&outside=0&outside=1&lidheight=40.0&thickness=4.0&format=svg&tabs=0.0&debug=0&labels=0&labels=1&reference=100&inner_corners=loop&burn=0.15&render=1
SettingsUrl: http://www.festi.info/IntegratedHingeBox?FingerJoint_angle=90.0&FingerJoint_style=rectangular&FingerJoint_surroundingspaces=2.0&FingerJoint_edge_width=1.0&FingerJoint_extra_length=0.0&FingerJoint_finger=2.0&FingerJoint_play=0.0&FingerJoint_space=2.0&FingerJoint_width=1.0&ChestHinge_hinge_strength=1.0&ChestHinge_pin_height=2.0&ChestHinge_play=0.1&x=200.0&y=200.0&h=200.0&outside=0&outside=1&lidheight=40.0&thickness=4.0&format=svg&tabs=0.0&debug=0&labels=0&labels=1&reference=100&inner_corners=loop&burn=0.15
-->
  <title
     id="title99">IntegratedHingeBox</title>
  <metadata
     id="metadata101">
    <rdf:RDF>
      <cc:Work>
        <dc:title>IntegratedHingeBox</dc:title>
        <dc:date>2022-04-16 15:36:15</dc:date>
        <dc:source>http://www.festi.info/IntegratedHingeBox?FingerJoint_angle=90.0&amp;FingerJoint_style=rectangular&amp;FingerJoint_surroundingspaces=2.0&amp;FingerJoint_edge_width=1.0&amp;FingerJoint_extra_length=0.0&amp;FingerJoint_finger=2.0&amp;FingerJoint_play=0.0&amp;FingerJoint_space=2.0&amp;FingerJoint_width=1.0&amp;ChestHinge_hinge_strength=1.0&amp;ChestHinge_pin_height=2.0&amp;ChestHinge_play=0.1&amp;x=200.0&amp;y=200.0&amp;h=200.0&amp;outside=0&amp;outside=1&amp;lidheight=40.0&amp;thickness=4.0&amp;format=svg&amp;tabs=0.0&amp;debug=0&amp;labels=0&amp;labels=1&amp;reference=100&amp;inner_corners=loop&amp;burn=0.15&amp;render=1</dc:source>
        <dc:description>Box with lid and integraded hinge

Created with Boxes.py (https://festi.info/boxes.py)
Command line: boxes IntegratedHingeBox --FingerJoint_angle=90.0 --FingerJoint_style=rectangular --FingerJoint_surroundingspaces=2.0 --FingerJoint_edge_width=1.0 --FingerJoint_extra_length=0.0 --FingerJoint_finger=2.0 --FingerJoint_play=0.0 --FingerJoint_space=2.0 --FingerJoint_width=1.0 --ChestHinge_hinge_strength=1.0 --ChestHinge_pin_height=2.0 --ChestHinge_play=0.1 --x=200.0 --y=200.0 --h=200.0 --outside=0 --outside=1 --lidheight=40.0 --thickness=4.0 --format=svg --tabs=0.0 --debug=0 --labels=0 --labels=1 --reference=100 --inner_corners=loop --burn=0.15
Url: http://www.festi.info/IntegratedHingeBox?FingerJoint_angle=90.0&amp;FingerJoint_style=rectangular&amp;FingerJoint_surroundingspaces=2.0&amp;FingerJoint_edge_width=1.0&amp;FingerJoint_extra_length=0.0&amp;FingerJoint_finger=2.0&amp;FingerJoint_play=0.0&amp;FingerJoint_space=2.0&amp;FingerJoint_width=1.0&amp;ChestHinge_hinge_strength=1.0&amp;ChestHinge_pin_height=2.0&amp;ChestHinge_play=0.1&amp;x=200.0&amp;y=200.0&amp;h=200.0&amp;outside=0&amp;outside=1&amp;lidheight=40.0&amp;thickness=4.0&amp;format=svg&amp;tabs=0.0&amp;debug=0&amp;labels=0&amp;labels=1&amp;reference=100&amp;inner_corners=loop&amp;burn=0.15&amp;render=1
SettingsUrl: http://www.festi.info/IntegratedHingeBox?FingerJoint_angle=90.0&amp;FingerJoint_style=rectangular&amp;FingerJoint_surroundingspaces=2.0&amp;FingerJoint_edge_width=1.0&amp;FingerJoint_extra_length=0.0&amp;FingerJoint_finger=2.0&amp;FingerJoint_play=0.0&amp;FingerJoint_space=2.0&amp;FingerJoint_width=1.0&amp;ChestHinge_hinge_strength=1.0&amp;ChestHinge_pin_height=2.0&amp;ChestHinge_play=0.1&amp;x=200.0&amp;y=200.0&amp;h=200.0&amp;outside=0&amp;outside=1&amp;lidheight=40.0&amp;thickness=4.0&amp;format=svg&amp;tabs=0.0&amp;debug=0&amp;labels=0&amp;labels=1&amp;reference=100&amp;inner_corners=loop&amp;burn=0.15
</dc:description>
        <dc:format>image/svg+xml</dc:format>
        <dc:type
           rdf:resource="http://purl.org/dc/dcmitype/StillImage" />
      </cc:Work>
    </rdf:RDF>
  </metadata>
  <g
     id="p-0"
     style="fill:none;stroke-linecap:round;stroke-linejoin:round"
     transform="translate(-21.617,-3.7574849)">
    <path
       d="m 21.917,1402.9 h 100 v -10 h -100 z"
       stroke="#000000"
       stroke-width="0.3"
       id="path103" />
    <text
       alignment-baseline="hanging"
       font-size="10px"
       style="font-style:normal;font-weight:normal;font-family:sans-serif;fill:#000000"
       text-anchor="middle"
       transform="translate(71.917,1392.9)"
       id="text105">100mm</text>
  </g>
  <g
     id="p-1"
     style="fill:none;stroke-linecap:round;stroke-linejoin:round"
     transform="translate(409.39193,-968.36728)">
    <path
       d="m 25.917,1390.6 h 12 c 0.082,0 0.15,-0.067 0.15,-0.15 v -3.85 c 0,-0.15 -0.15,0 0,0 h 7.7 c 0.15,0 0,-0.15 0,0 v 3.85 c 0,0.083 0.067,0.15 0.15,0.15 h 8 c 0.082,0 0.15,-0.067 0.15,-0.15 v -3.85 c 0,-0.15 -0.15,0 0,0 h 7.7 c 0.15,0 0,-0.15 0,0 v 3.85 c 0,0.083 0.067,0.15 0.15,0.15 h 8 c 0.082,0 0.15,-0.067 0.15,-0.15 v -3.85 c 0,-0.15 -0.15,0 0,0 h 7.7 c 0.15,0 0,-0.15 0,0 v 3.85 c 0,0.083 0.067,0.15 0.15,0.15 h 8 c 0.082,0 0.15,-0.067 0.15,-0.15 v -3.85 c 0,-0.15 -0.15,0 0,0 h 7.7 c 0.15,0 0,-0.15 0,0 v 3.85 c 0,0.083 0.067,0.15 0.15,0.15 h 8 c 0.082,0 0.15,-0.067 0.15,-0.15 v -3.85 c 0,-0.15 -0.15,0 0,0 h 7.7 c 0.15,0 0,-0.15 0,0 v 3.85 c 0,0.083 0.067,0.15 0.15,0.15 h 8 c 0.082,0 0.15,-0.067 0.15,-0.15 v -3.85 c 0,-0.15 -0.15,0 0,0 h 7.7 c 0.15,0 0,-0.15 0,0 v 3.85 c 0,0.083 0.067,0.15 0.15,0.15 h 8 c 0.082,0 0.15,-0.067 0.15,-0.15 v -3.85 c 0,-0.15 -0.15,0 0,0 h 7.7 c 0.15,0 0,-0.15 0,0 v 3.85 c 0,0.083 0.067,0.15 0.15,0.15 h 8 c 0.082,0 0.15,-0.067 0.15,-0.15 v -3.85 c 0,-0.15 -0.15,0 0,0 h 7.7 c 0.15,0 0,-0.15 0,0 v 3.85 c 0,0.083 0.067,0.15 0.15,0.15 h 8 c 0.082,0 0.15,-0.067 0.15,-0.15 v -3.85 c 0,-0.15 -0.15,0 0,0 h 7.7 c 0.15,0 0,-0.15 0,0 v 3.85 c 0,0.083 0.067,0.15 0.15,0.15 h 8 c 0.082,0 0.15,-0.067 0.15,-0.15 v -3.85 c 0,-0.15 -0.15,0 0,0 h 7.7 c 0.15,0 0,-0.15 0,0 v 3.85 c 0,0.083 0.067,0.15 0.15,0.15 h 8 c 0.082,0 0.15,-0.067 0.15,-0.15 v -3.85 c 0,-0.15 -0.15,0 0,0 h 7.7 c 0.15,0 0,-0.15 0,0 v 3.85 c 0,0.083 0.067,0.15 0.15,0.15 h 12 c 0.082,0 0.15,-0.067 0.15,-0.15 v -4 -11.85 c 0,-0.15 -0.15,0 0,0 h 3.85 c 0.082,0 0.15,-0.067 0.15,-0.15 v -8 c 0,-0.083 -0.068,-0.15 -0.15,-0.15 h -3.85 c -0.15,0 0,0.15 0,0 v -7.7 c 0,-0.15 -0.15,0 0,0 h 3.85 c 0.082,0 0.15,-0.067 0.15,-0.15 v -8 c 0,-0.083 -0.068,-0.15 -0.15,-0.15 h -3.85 c -0.15,0 0,0.15 0,0 v -7.7 c 0,-0.15 -0.15,0 0,0 h 3.85 c 0.082,0 0.15,-0.067 0.15,-0.15 v -8 c 0,-0.083 -0.068,-0.15 -0.15,-0.15 h -3.85 c -0.15,0 0,0.15 0,0 v -7.7 c 0,-0.15 -0.15,0 0,0 h 3.85 c 0.082,0 0.15,-0.067 0.15,-0.15 v -8 c 0,-0.083 -0.068,-0.15 -0.15,-0.15 h -3.85 c -0.15,0 0,0.15 0,0 v -7.7 c 0,-0.15 -0.15,0 0,0 h 3.85 c 0.082,0 0.15,-0.067 0.15,-0.15 v -8 c 0,-0.083 -0.068,-0.15 -0.15,-0.15 h -3.85 c -0.15,0 0,0.15 0,0 v -7.7 c 0,-0.15 -0.15,0 0,0 h 3.85 c 0.082,0 0.15,-0.067 0.15,-0.15 v -8 c 0,-0.083 -0.068,-0.15 -0.15,-0.15 h -3.85 c -0.15,0 0,0.15 0,0 v -7.7 c 0,-0.15 -0.15,0 0,0 h 3.85 c 0.082,0 0.15,-0.067 0.15,-0.15 v -8 c 0,-0.083 -0.068,-0.15 -0.15,-0.15 h -3.85 c -0.15,0 0,0.15 0,0 v -7.7 c 0,-0.15 -0.15,0 0,0 h 3.85 c 0.082,0 0.15,-0.067 0.15,-0.15 v -8 c 0,-0.083 -0.068,-0.15 -0.15,-0.15 h -3.85 c -0.15,0 0,0.15 0,0 v -7.7 c 0,-0.15 -0.15,0 0,0 h 3.85 c 0.082,0 0.15,-0.067 0.15,-0.15 v -8 c 0,-0.083 -0.068,-0.15 -0.15,-0.15 h -3.85 c -0.15,0 0,0.15 0,0 v -7.7 c 0,-0.15 -0.15,0 0,0 h 3.85 c 0.082,0 0.15,-0.067 0.15,-0.15 v -8 c 0,-0.083 -0.068,-0.15 -0.15,-0.15 h -3.85 c -0.15,0 0,0.15 0,0 v -7.7 c 0,-0.15 -0.15,0 0,0 h 3.85 c 0.082,0 0.15,-0.067 0.15,-0.15 v -8 c 0,-0.083 -0.068,-0.15 -0.15,-0.15 h -3.85 c -0.15,0 0,0.15 0,0 v -11.85 c 0,-0.083 -0.068,-0.15 -0.15,-0.15 h -184 c 0.082,0 0.15,0.067 0.15,0.15 0,-2.403 -0.713,-4.752 -2.048,-6.75 -1.335,-1.998 -3.233,-3.556 -5.453,-4.475 -2.22,-0.92 -4.663,-1.16 -7.02,-0.692 -2.357,0.469 -4.522,1.626 -6.221,3.326 -1.699,1.699 -2.856,3.864 -3.325,6.221 -0.469,2.357 -0.228,4.799 0.691,7.02 0.92,2.22 2.477,4.117 4.475,5.452 1.998,1.335 4.347,2.048 6.751,2.048 h 4 c -0.027,0 -0.053,-0.01 -0.075,-0.02 -0.023,-0.013 -0.042,-0.032 -0.055,-0.055 -0.014,-0.023 -0.02,-0.049 -0.02,-0.075 0,-0.026 0.006,-0.052 0.02,-0.075 0.013,-0.023 0.032,-0.042 0.055,-0.055 0.022,-0.013 0.048,-0.02 0.075,-0.02 -0.083,0 -0.15,0.067 -0.15,0.15 v 13.85 c 0,0.15 0.15,0 0,0 h -3.85 c -0.083,0 -0.15,0.067 -0.15,0.15 v 8 c 0,0.083 0.067,0.15 0.15,0.15 h 3.85 c 0.15,0 0,-0.15 0,0 v 7.7 c 0,0.15 0.15,0 0,0 h -3.85 c -0.083,0 -0.15,0.067 -0.15,0.15 v 8 c 0,0.083 0.067,0.15 0.15,0.15 h 3.85 c 0.15,0 0,-0.15 0,0 v 7.7 c 0,0.15 0.15,0 0,0 h -3.85 c -0.083,0 -0.15,0.067 -0.15,0.15 v 8 c 0,0.083 0.067,0.15 0.15,0.15 h 3.85 c 0.15,0 0,-0.15 0,0 v 7.7 c 0,0.15 0.15,0 0,0 h -3.85 c -0.083,0 -0.15,0.067 -0.15,0.15 v 8 c 0,0.083 0.067,0.15 0.15,0.15 h 3.85 c 0.15,0 0,-0.15 0,0 v 7.7 c 0,0.15 0.15,0 0,0 h -3.85 c -0.083,0 -0.15,0.067 -0.15,0.15 v 8 c 0,0.083 0.067,0.15 0.15,0.15 h 3.85 c 0.15,0 0,-0.15 0,0 v 7.7 c 0,0.15 0.15,0 0,0 h -3.85 c -0.083,0 -0.15,0.067 -0.15,0.15 v 8 c 0,0.083 0.067,0.15 0.15,0.15 h 3.85 c 0.15,0 0,-0.15 0,0 v 7.7 c 0,0.15 0.15,0 0,0 h -3.85 c -0.083,0 -0.15,0.067 -0.15,0.15 v 8 c 0,0.083 0.067,0.15 0.15,0.15 h 3.85 c 0.15,0 0,-0.15 0,0 v 7.7 c 0,0.15 0.15,0 0,0 h -3.85 c -0.083,0 -0.15,0.067 -0.15,0.15 v 8 c 0,0.083 0.067,0.15 0.15,0.15 h 3.85 c 0.15,0 0,-0.15 0,0 v 7.7 c 0,0.15 0.15,0 0,0 h -3.85 c -0.083,0 -0.15,0.067 -0.15,0.15 v 8 c 0,0.083 0.067,0.15 0.15,0.15 h 3.85 c 0.15,0 0,-0.15 0,0 v 7.7 c 0,0.15 0.15,0 0,0 h -3.85 c -0.083,0 -0.15,0.067 -0.15,0.15 v 8 c 0,0.083 0.067,0.15 0.15,0.15 h 3.85 c 0.15,0 0,-0.15 0,0 v 13.85 4 c 0,0.083 0.067,0.15 0.15,0.15 z"
       stroke="#000000"
       stroke-width="0.3"
       id="path108" />
    <path
       d="m 14.067,1194.3 c 0,-1.505 0.432,-2.978 1.246,-4.244 0.813,-1.266 1.974,-2.271 3.343,-2.897 1.368,-0.625 2.888,-0.843 4.378,-0.629 1.489,0.214 2.886,0.852 4.023,1.837 1.138,0.986 1.968,2.277 2.392,3.721 0.424,1.444 0.424,2.98 0,4.424 -0.424,1.444 -1.254,2.735 -2.392,3.721 -1.137,0.985 -2.534,1.623 -4.023,1.837 -1.49,0.214 -3.01,0 -4.378,-0.629 -1.369,-0.626 -2.53,-1.631 -3.343,-2.897 -0.814,-1.266 -1.246,-2.739 -1.246,-4.244 z"
       stroke="#0000ff"
       stroke-width="0.3"
       id="path110" />
    <path
       d="m 23.917,1188.463 h 1.85 c 0.15,0 0,-0.15 0,0 v 5.687 c 0,0.15 0.15,0 0,0 h -3.7 c -0.15,0 0,0.15 0,0 v -5.687 c 0,-0.15 -0.15,0 0,0 z"
       stroke="#0000ff"
       stroke-width="0.3"
       id="path112" />
  </g>
  <g
     id="p-2"
     style="fill:none;stroke-linecap:round;stroke-linejoin:round"
     transform="translate(407.22425,-720.15526)">
    <path
       d="m 25.917,1179.9 c -0.027,0 -0.053,-0.01 -0.075,-0.02 -0.023,-0.013 -0.042,-0.032 -0.055,-0.055 -0.014,-0.023 -0.02,-0.049 -0.02,-0.075 0,-0.026 0.006,-0.052 0.02,-0.075 0.013,-0.023 0.032,-0.042 0.055,-0.055 0.022,-0.013 0.048,-0.02 0.075,-0.02 h -4 c 0.026,0 0.052,0.01 0.075,0.02 0.022,0.013 0.041,0.032 0.054,0.055 0.014,0.023 0.021,0.049 0.021,0.075 0,0.026 -0.007,0.052 -0.021,0.075 -0.013,0.023 -0.032,0.042 -0.054,0.055 -0.023,0.013 -0.049,0.02 -0.075,0.02 2.15,0 4.262,0.566 6.125,1.641 1.862,1.075 3.408,2.622 4.483,4.484 1.076,1.862 1.642,3.975 1.642,6.125 0,0.083 0.067,0.15 0.15,0.15 h 183.6 c 0.082,0 0.15,-0.067 0.15,-0.15 v -7.85 c 0,-0.15 -0.15,0 0,0 h 3.85 c 0.082,0 0.15,-0.067 0.15,-0.15 v -8 c 0,-0.083 -0.068,-0.15 -0.15,-0.15 h -3.85 c -0.15,0 0,0.15 0,0 v -7.7 c 0,-0.15 -0.15,0 0,0 h 3.85 c 0.082,0 0.15,-0.067 0.15,-0.15 v -8 c 0,-0.083 -0.068,-0.15 -0.15,-0.15 h -3.85 c -0.15,0 0,0.15 0,0 v -7.85 -4 c 0,-0.083 -0.068,-0.15 -0.15,-0.15 h -12 c -0.083,0 -0.15,0.067 -0.15,0.15 v 3.85 c 0,0.15 0.15,0 0,0 h -7.7 c -0.15,0 0,0.15 0,0 v -3.85 c 0,-0.083 -0.068,-0.15 -0.15,-0.15 h -8 c -0.083,0 -0.15,0.067 -0.15,0.15 v 3.85 c 0,0.15 0.15,0 0,0 h -7.7 c -0.15,0 0,0.15 0,0 v -3.85 c 0,-0.083 -0.068,-0.15 -0.15,-0.15 h -8 c -0.083,0 -0.15,0.067 -0.15,0.15 v 3.85 c 0,0.15 0.15,0 0,0 h -7.7 c -0.15,0 0,0.15 0,0 v -3.85 c 0,-0.083 -0.068,-0.15 -0.15,-0.15 h -8 c -0.083,0 -0.15,0.067 -0.15,0.15 v 3.85 c 0,0.15 0.15,0 0,0 h -7.7 c -0.15,0 0,0.15 0,0 v -3.85 c 0,-0.083 -0.068,-0.15 -0.15,-0.15 h -8 c -0.083,0 -0.15,0.067 -0.15,0.15 v 3.85 c 0,0.15 0.15,0 0,0 h -7.7 c -0.15,0 0,0.15 0,0 v -3.85 c 0,-0.083 -0.068,-0.15 -0.15,-0.15 h -8 c -0.083,0 -0.15,0.067 -0.15,0.15 v 3.85 c 0,0.15 0.15,0 0,0 h -7.7 c -0.15,0 0,0.15 0,0 v -3.85 c 0,-0.083 -0.068,-0.15 -0.15,-0.15 h -8 c -0.083,0 -0.15,0.067 -0.15,0.15 v 3.85 c 0,0.15 0.15,0 0,0 h -7.7 c -0.15,0 0,0.15 0,0 v -3.85 c 0,-0.083 -0.068,-0.15 -0.15,-0.15 h -8 c -0.083,0 -0.15,0.067 -0.15,0.15 v 3.85 c 0,0.15 0.15,0 0,0 h -7.7 c -0.15,0 0,0.15 0,0 v -3.85 c 0,-0.083 -0.068,-0.15 -0.15,-0.15 h -8 c -0.083,0 -0.15,0.067 -0.15,0.15 v 3.85 c 0,0.15 0.15,0 0,0 h -7.7 c -0.15,0 0,0.15 0,0 v -3.85 c 0,-0.083 -0.068,-0.15 -0.15,-0.15 h -8 c -0.083,0 -0.15,0.067 -0.15,0.15 v 3.85 c 0,0.15 0.15,0 0,0 h -7.7 c -0.15,0 0,0.15 0,0 v -3.85 c 0,-0.083 -0.068,-0.15 -0.15,-0.15 h -8 c -0.083,0 -0.15,0.067 -0.15,0.15 v 3.85 c 0,0.15 0.15,0 0,0 h -7.7 c -0.15,0 0,0.15 0,0 v -3.85 c 0,-0.083 -0.068,-0.15 -0.15,-0.15 h -12 c -0.083,0 -0.15,0.067 -0.15,0.15 v 4 9.65 c 0,0.15 0.15,0 0,0 h -3.85 c -0.083,0 -0.15,0.067 -0.15,0.15 v 8 c 0,0.083 0.067,0.15 0.15,0.15 h 3.85 c 0.15,0 0,-0.15 0,0 v 9.65 c 0,0.083 0.067,0.15 0.15,0.15 z"
       stroke="#000000"
       stroke-width="0.3"
       id="path115" />
  </g>
  <g
     id="p-3"
     style="fill:none;stroke-linecap:round;stroke-linejoin:round"
     transform="translate(399.32996,-937.54996)">
    <path
       d="m 25.917,1146 h 12 c 0.082,0 0.15,-0.067 0.15,-0.15 V 1142 c 0,-0.15 -0.15,0 0,0 h 7.7 c 0.15,0 0,-0.15 0,0 v 3.85 c 0,0.083 0.067,0.15 0.15,0.15 h 8 c 0.082,0 0.15,-0.067 0.15,-0.15 V 1142 c 0,-0.15 -0.15,0 0,0 h 7.7 c 0.15,0 0,-0.15 0,0 v 3.85 c 0,0.083 0.067,0.15 0.15,0.15 h 8 c 0.082,0 0.15,-0.067 0.15,-0.15 V 1142 c 0,-0.15 -0.15,0 0,0 h 7.7 c 0.15,0 0,-0.15 0,0 v 3.85 c 0,0.083 0.067,0.15 0.15,0.15 h 8 c 0.082,0 0.15,-0.067 0.15,-0.15 V 1142 c 0,-0.15 -0.15,0 0,0 h 7.7 c 0.15,0 0,-0.15 0,0 v 3.85 c 0,0.083 0.067,0.15 0.15,0.15 h 8 c 0.082,0 0.15,-0.067 0.15,-0.15 V 1142 c 0,-0.15 -0.15,0 0,0 h 7.7 c 0.15,0 0,-0.15 0,0 v 3.85 c 0,0.083 0.067,0.15 0.15,0.15 h 8 c 0.082,0 0.15,-0.067 0.15,-0.15 V 1142 c 0,-0.15 -0.15,0 0,0 h 7.7 c 0.15,0 0,-0.15 0,0 v 3.85 c 0,0.083 0.067,0.15 0.15,0.15 h 8 c 0.082,0 0.15,-0.067 0.15,-0.15 V 1142 c 0,-0.15 -0.15,0 0,0 h 7.7 c 0.15,0 0,-0.15 0,0 v 3.85 c 0,0.083 0.067,0.15 0.15,0.15 h 8 c 0.082,0 0.15,-0.067 0.15,-0.15 V 1142 c 0,-0.15 -0.15,0 0,0 h 7.7 c 0.15,0 0,-0.15 0,0 v 3.85 c 0,0.083 0.067,0.15 0.15,0.15 h 8 c 0.082,0 0.15,-0.067 0.15,-0.15 V 1142 c 0,-0.15 -0.15,0 0,0 h 7.7 c 0.15,0 0,-0.15 0,0 v 3.85 c 0,0.083 0.067,0.15 0.15,0.15 h 8 c 0.082,0 0.15,-0.067 0.15,-0.15 V 1142 c 0,-0.15 -0.15,0 0,0 h 7.7 c 0.15,0 0,-0.15 0,0 v 3.85 c 0,0.083 0.067,0.15 0.15,0.15 h 8 c 0.082,0 0.15,-0.067 0.15,-0.15 V 1142 c 0,-0.15 -0.15,0 0,0 h 7.7 c 0.15,0 0,-0.15 0,0 v 3.85 c 0,0.083 0.067,0.15 0.15,0.15 h 12 c 0.082,0 0.15,-0.067 0.15,-0.15 v -4 -13.85 c 0,-0.15 -0.15,0 0,0 h 3.85 c 0.082,0 0.15,-0.067 0.15,-0.15 v -8 c 0,-0.083 -0.068,-0.15 -0.15,-0.15 h -3.85 c -0.15,0 0,0.15 0,0 v -7.7 c 0,-0.15 -0.15,0 0,0 h 3.85 c 0.082,0 0.15,-0.067 0.15,-0.15 v -8 c 0,-0.083 -0.068,-0.15 -0.15,-0.15 h -3.85 c -0.15,0 0,0.15 0,0 v -7.7 c 0,-0.15 -0.15,0 0,0 h 3.85 c 0.082,0 0.15,-0.067 0.15,-0.15 v -8 c 0,-0.083 -0.068,-0.15 -0.15,-0.15 h -3.85 c -0.15,0 0,0.15 0,0 v -7.7 c 0,-0.15 -0.15,0 0,0 h 3.85 c 0.082,0 0.15,-0.067 0.15,-0.15 v -8 c 0,-0.083 -0.068,-0.15 -0.15,-0.15 h -3.85 c -0.15,0 0,0.15 0,0 v -7.7 c 0,-0.15 -0.15,0 0,0 h 3.85 c 0.082,0 0.15,-0.067 0.15,-0.15 v -8 c 0,-0.083 -0.068,-0.15 -0.15,-0.15 h -3.85 c -0.15,0 0,0.15 0,0 v -7.7 c 0,-0.15 -0.15,0 0,0 h 3.85 c 0.082,0 0.15,-0.067 0.15,-0.15 v -8 c 0,-0.083 -0.068,-0.15 -0.15,-0.15 h -3.85 c -0.15,0 0,0.15 0,0 v -7.7 c 0,-0.15 -0.15,0 0,0 h 3.85 c 0.082,0 0.15,-0.067 0.15,-0.15 v -8 c 0,-0.083 -0.068,-0.15 -0.15,-0.15 h -3.85 c -0.15,0 0,0.15 0,0 v -7.7 c 0,-0.15 -0.15,0 0,0 h 3.85 c 0.082,0 0.15,-0.067 0.15,-0.15 v -8 c 0,-0.083 -0.068,-0.15 -0.15,-0.15 h -3.85 c -0.15,0 0,0.15 0,0 v -7.7 c 0,-0.15 -0.15,0 0,0 h 3.85 c 0.082,0 0.15,-0.067 0.15,-0.15 v -8 c 0,-0.083 -0.068,-0.15 -0.15,-0.15 h -3.85 c -0.15,0 0,0.15 0,0 V 984 c 0,-0.15 -0.15,0 0,0 h 3.85 c 0.082,0 0.15,-0.067 0.15,-0.15 v -8 c 0,-0.083 -0.068,-0.15 -0.15,-0.15 h -3.85 c -0.15,0 0,0.15 0,0 v -13.85 c 0,-0.083 -0.068,-0.15 -0.15,-0.15 0.026,0 0.052,0.007 0.075,0.02 0.022,0.013 0.041,0.032 0.054,0.055 0.014,0.023 0.021,0.049 0.021,0.075 0,0.026 -0.007,0.052 -0.021,0.075 -0.013,0.023 -0.032,0.042 -0.054,0.055 -0.023,0.013 -0.049,0.02 -0.075,0.02 h 4 c 2.403,0 4.752,-0.713 6.75,-2.048 1.998,-1.335 3.555,-3.232 4.475,-5.452 0.919,-2.221 1.16,-4.663 0.691,-7.02 -0.469,-2.357 -1.626,-4.522 -3.325,-6.221 -1.699,-1.7 -3.864,-2.857 -6.221,-3.326 -2.357,-0.468 -4.8,-0.228 -7.02,0.692 -2.22,0.919 -4.118,2.477 -5.453,4.475 -1.335,1.998 -2.047,4.347 -2.047,6.75 0,-0.083 0.067,-0.15 0.15,-0.15 h -184 c -0.083,0 -0.15,0.067 -0.15,0.15 v 11.85 c 0,0.15 0.15,0 0,0 h -3.85 c -0.083,0 -0.15,0.067 -0.15,0.15 v 8 c 0,0.083 0.067,0.15 0.15,0.15 h 3.85 c 0.15,0 0,-0.15 0,0 v 7.7 c 0,0.15 0.15,0 0,0 h -3.85 c -0.083,0 -0.15,0.067 -0.15,0.15 v 8 c 0,0.083 0.067,0.15 0.15,0.15 h 3.85 c 0.15,0 0,-0.15 0,0 v 7.7 c 0,0.15 0.15,0 0,0 h -3.85 c -0.083,0 -0.15,0.067 -0.15,0.15 v 8 c 0,0.083 0.067,0.15 0.15,0.15 h 3.85 c 0.15,0 0,-0.15 0,0 v 7.7 c 0,0.15 0.15,0 0,0 h -3.85 c -0.083,0 -0.15,0.067 -0.15,0.15 v 8 c 0,0.083 0.067,0.15 0.15,0.15 h 3.85 c 0.15,0 0,-0.15 0,0 v 7.7 c 0,0.15 0.15,0 0,0 h -3.85 c -0.083,0 -0.15,0.067 -0.15,0.15 v 8 c 0,0.083 0.067,0.15 0.15,0.15 h 3.85 c 0.15,0 0,-0.15 0,0 v 7.7 c 0,0.15 0.15,0 0,0 h -3.85 c -0.083,0 -0.15,0.067 -0.15,0.15 v 8 c 0,0.083 0.067,0.15 0.15,0.15 h 3.85 c 0.15,0 0,-0.15 0,0 v 7.7 c 0,0.15 0.15,0 0,0 h -3.85 c -0.083,0 -0.15,0.067 -0.15,0.15 v 8 c 0,0.083 0.067,0.15 0.15,0.15 h 3.85 c 0.15,0 0,-0.15 0,0 v 7.7 c 0,0.15 0.15,0 0,0 h -3.85 c -0.083,0 -0.15,0.067 -0.15,0.15 v 8 c 0,0.083 0.067,0.15 0.15,0.15 h 3.85 c 0.15,0 0,-0.15 0,0 v 7.7 c 0,0.15 0.15,0 0,0 h -3.85 c -0.083,0 -0.15,0.067 -0.15,0.15 v 8 c 0,0.083 0.067,0.15 0.15,0.15 h 3.85 c 0.15,0 0,-0.15 0,0 v 7.7 c 0,0.15 0.15,0 0,0 h -3.85 c -0.083,0 -0.15,0.067 -0.15,0.15 v 8 c 0,0.083 0.067,0.15 0.15,0.15 h 3.85 c 0.15,0 0,-0.15 0,0 v 7.7 c 0,0.15 0.15,0 0,0 h -3.85 c -0.083,0 -0.15,0.067 -0.15,0.15 v 8 c 0,0.083 0.067,0.15 0.15,0.15 h 3.85 c 0.15,0 0,-0.15 0,0 v 11.85 4 c 0,0.083 0.067,0.15 0.15,0.15 z"
       stroke="#000000"
       stroke-width="0.3"
       id="path118" />
    <path
       d="m 214.067,949.7 c 0,-1.505 0.432,-2.978 1.246,-4.244 0.813,-1.266 1.974,-2.271 3.343,-2.897 1.368,-0.625 2.888,-0.843 4.378,-0.629 1.489,0.214 2.886,0.852 4.023,1.837 1.138,0.986 1.968,2.277 2.392,3.721 0.424,1.444 0.424,2.98 0,4.424 -0.424,1.444 -1.254,2.735 -2.392,3.721 -1.137,0.985 -2.534,1.623 -4.023,1.837 -1.49,0.214 -3.01,-0.004 -4.378,-0.629 -1.369,-0.626 -2.53,-1.631 -3.343,-2.897 -0.814,-1.266 -1.246,-2.739 -1.246,-4.244 z"
       stroke="#0000ff"
       stroke-width="0.3"
       id="path120" />
    <path
       d="m 219.917,943.863 h 1.85 c 0.15,0 0,-0.15 0,0 v 5.687 c 0,0.15 0.15,0 0,0 h -3.7 c -0.15,0 0,0.15 0,0 v -5.687 c 0,-0.15 -0.15,0 0,0 z"
       stroke="#0000ff"
       stroke-width="0.3"
       id="path122" />
  </g>
  <g
     id="p-4"
     style="fill:none;stroke-linecap:round;stroke-linejoin:round"
     transform="translate(187.09097,-483.48978)">
    <path
       d="m 25.917,947.7 h 183.6 c 0.082,0 0.15,-0.067 0.15,-0.15 0,-2.15 0.566,-4.263 1.641,-6.125 1.075,-1.862 2.621,-3.409 4.484,-4.484 1.862,-1.075 3.974,-1.641 6.125,-1.641 -0.027,0 -0.053,-0.007 -0.075,-0.02 -0.023,-0.013 -0.042,-0.032 -0.055,-0.055 -0.014,-0.023 -0.02,-0.049 -0.02,-0.075 0,-0.026 0.006,-0.052 0.02,-0.075 0.013,-0.023 0.032,-0.042 0.055,-0.055 0.022,-0.013 0.048,-0.02 0.075,-0.02 h -4 c 0.026,0 0.052,0.007 0.075,0.02 0.022,0.013 0.041,0.032 0.054,0.055 0.014,0.023 0.021,0.049 0.021,0.075 0,0.026 -0.007,0.052 -0.021,0.075 -0.013,0.023 -0.032,0.042 -0.054,0.055 -0.023,0.013 -0.049,0.02 -0.075,0.02 0.082,0 0.15,-0.067 0.15,-0.15 v -9.65 c 0,-0.15 -0.15,0 0,0 h 3.85 c 0.082,0 0.15,-0.067 0.15,-0.15 v -8 c 0,-0.083 -0.068,-0.15 -0.15,-0.15 h -3.85 c -0.15,0 0,0.15 0,0 v -9.65 -4 c 0,-0.083 -0.068,-0.15 -0.15,-0.15 h -12 c -0.083,0 -0.15,0.067 -0.15,0.15 v 3.85 c 0,0.15 0.15,0 0,0 h -7.7 c -0.15,0 0,0.15 0,0 v -3.85 c 0,-0.083 -0.068,-0.15 -0.15,-0.15 h -8 c -0.083,0 -0.15,0.067 -0.15,0.15 v 3.85 c 0,0.15 0.15,0 0,0 h -7.7 c -0.15,0 0,0.15 0,0 v -3.85 c 0,-0.083 -0.068,-0.15 -0.15,-0.15 h -8 c -0.083,0 -0.15,0.067 -0.15,0.15 v 3.85 c 0,0.15 0.15,0 0,0 h -7.7 c -0.15,0 0,0.15 0,0 v -3.85 c 0,-0.083 -0.068,-0.15 -0.15,-0.15 h -8 c -0.083,0 -0.15,0.067 -0.15,0.15 v 3.85 c 0,0.15 0.15,0 0,0 h -7.7 c -0.15,0 0,0.15 0,0 v -3.85 c 0,-0.083 -0.068,-0.15 -0.15,-0.15 h -8 c -0.083,0 -0.15,0.067 -0.15,0.15 v 3.85 c 0,0.15 0.15,0 0,0 h -7.7 c -0.15,0 0,0.15 0,0 v -3.85 c 0,-0.083 -0.068,-0.15 -0.15,-0.15 h -8 c -0.083,0 -0.15,0.067 -0.15,0.15 v 3.85 c 0,0.15 0.15,0 0,0 h -7.7 c -0.15,0 0,0.15 0,0 v -3.85 c 0,-0.083 -0.068,-0.15 -0.15,-0.15 h -8 c -0.083,0 -0.15,0.067 -0.15,0.15 v 3.85 c 0,0.15 0.15,0 0,0 h -7.7 c -0.15,0 0,0.15 0,0 v -3.85 c 0,-0.083 -0.068,-0.15 -0.15,-0.15 h -8 c -0.083,0 -0.15,0.067 -0.15,0.15 v 3.85 c 0,0.15 0.15,0 0,0 h -7.7 c -0.15,0 0,0.15 0,0 v -3.85 c 0,-0.083 -0.068,-0.15 -0.15,-0.15 h -8 c -0.083,0 -0.15,0.067 -0.15,0.15 v 3.85 c 0,0.15 0.15,0 0,0 h -7.7 c -0.15,0 0,0.15 0,0 v -3.85 c 0,-0.083 -0.068,-0.15 -0.15,-0.15 h -8 c -0.083,0 -0.15,0.067 -0.15,0.15 v 3.85 c 0,0.15 0.15,0 0,0 h -7.7 c -0.15,0 0,0.15 0,0 v -3.85 c 0,-0.083 -0.068,-0.15 -0.15,-0.15 h -8 c -0.083,0 -0.15,0.067 -0.15,0.15 v 3.85 c 0,0.15 0.15,0 0,0 h -7.7 c -0.15,0 0,0.15 0,0 v -3.85 c 0,-0.083 -0.068,-0.15 -0.15,-0.15 h -12 c -0.083,0 -0.15,0.067 -0.15,0.15 v 4 7.85 c 0,0.15 0.15,0 0,0 h -3.85 c -0.083,0 -0.15,0.067 -0.15,0.15 v 8 c 0,0.083 0.067,0.15 0.15,0.15 h 3.85 c 0.15,0 0,-0.15 0,0 v 7.7 c 0,0.15 0.15,0 0,0 h -3.85 c -0.083,0 -0.15,0.067 -0.15,0.15 v 8 c 0,0.083 0.067,0.15 0.15,0.15 h 3.85 c 0.15,0 0,-0.15 0,0 v 7.85 c 0,0.083 0.067,0.15 0.15,0.15 z"
       stroke="#000000"
       stroke-width="0.3"
       id="path125" />
  </g>
  <g
     id="p-5"
     style="fill:none;stroke-linecap:round;stroke-linejoin:round"
     transform="translate(188.62494,-695.13049)">
    <path
       d="m 25.917,901.4 h 12 c 0.082,0 0.15,-0.067 0.15,-0.15 v -3.85 c 0,-0.15 -0.15,0 0,0 h 7.7 c 0.15,0 0,-0.15 0,0 v 3.85 c 0,0.083 0.067,0.15 0.15,0.15 h 8 c 0.082,0 0.15,-0.067 0.15,-0.15 v -3.85 c 0,-0.15 -0.15,0 0,0 h 7.7 c 0.15,0 0,-0.15 0,0 v 3.85 c 0,0.083 0.067,0.15 0.15,0.15 h 8 c 0.082,0 0.15,-0.067 0.15,-0.15 v -3.85 c 0,-0.15 -0.15,0 0,0 h 7.7 c 0.15,0 0,-0.15 0,0 v 3.85 c 0,0.083 0.067,0.15 0.15,0.15 h 8 c 0.082,0 0.15,-0.067 0.15,-0.15 v -3.85 c 0,-0.15 -0.15,0 0,0 h 7.7 c 0.15,0 0,-0.15 0,0 v 3.85 c 0,0.083 0.067,0.15 0.15,0.15 h 8 c 0.082,0 0.15,-0.067 0.15,-0.15 v -3.85 c 0,-0.15 -0.15,0 0,0 h 7.7 c 0.15,0 0,-0.15 0,0 v 3.85 c 0,0.083 0.067,0.15 0.15,0.15 h 8 c 0.082,0 0.15,-0.067 0.15,-0.15 v -3.85 c 0,-0.15 -0.15,0 0,0 h 7.7 c 0.15,0 0,-0.15 0,0 v 3.85 c 0,0.083 0.067,0.15 0.15,0.15 h 8 c 0.082,0 0.15,-0.067 0.15,-0.15 v -3.85 c 0,-0.15 -0.15,0 0,0 h 7.7 c 0.15,0 0,-0.15 0,0 v 3.85 c 0,0.083 0.067,0.15 0.15,0.15 h 8 c 0.082,0 0.15,-0.067 0.15,-0.15 v -3.85 c 0,-0.15 -0.15,0 0,0 h 7.7 c 0.15,0 0,-0.15 0,0 v 3.85 c 0,0.083 0.067,0.15 0.15,0.15 h 8 c 0.082,0 0.15,-0.067 0.15,-0.15 v -3.85 c 0,-0.15 -0.15,0 0,0 h 7.7 c 0.15,0 0,-0.15 0,0 v 3.85 c 0,0.083 0.067,0.15 0.15,0.15 h 8 c 0.082,0 0.15,-0.067 0.15,-0.15 v -3.85 c 0,-0.15 -0.15,0 0,0 h 7.7 c 0.15,0 0,-0.15 0,0 v 3.85 c 0,0.083 0.067,0.15 0.15,0.15 h 8 c 0.082,0 0.15,-0.067 0.15,-0.15 v -3.85 c 0,-0.15 -0.15,0 0,0 h 7.7 c 0.15,0 0,-0.15 0,0 v 3.85 c 0,0.083 0.067,0.15 0.15,0.15 h 12 4 c 0.082,0 0.15,-0.067 0.15,-0.15 v -4 -12 c 0,-0.083 -0.068,-0.15 -0.15,-0.15 h -3.85 c -0.15,0 0,0.15 0,0 v -7.7 c 0,-0.15 -0.15,0 0,0 h 3.85 c 0.082,0 0.15,-0.067 0.15,-0.15 v -8 c 0,-0.083 -0.068,-0.15 -0.15,-0.15 h -3.85 c -0.15,0 0,0.15 0,0 v -7.7 c 0,-0.15 -0.15,0 0,0 h 3.85 c 0.082,0 0.15,-0.067 0.15,-0.15 v -8 c 0,-0.083 -0.068,-0.15 -0.15,-0.15 h -3.85 c -0.15,0 0,0.15 0,0 v -7.7 c 0,-0.15 -0.15,0 0,0 h 3.85 c 0.082,0 0.15,-0.067 0.15,-0.15 v -8 c 0,-0.083 -0.068,-0.15 -0.15,-0.15 h -3.85 c -0.15,0 0,0.15 0,0 v -7.7 c 0,-0.15 -0.15,0 0,0 h 3.85 c 0.082,0 0.15,-0.067 0.15,-0.15 v -8 c 0,-0.083 -0.068,-0.15 -0.15,-0.15 h -3.85 c -0.15,0 0,0.15 0,0 v -7.7 c 0,-0.15 -0.15,0 0,0 h 3.85 c 0.082,0 0.15,-0.067 0.15,-0.15 v -8 c 0,-0.083 -0.068,-0.15 -0.15,-0.15 h -3.85 c -0.15,0 0,0.15 0,0 v -7.7 c 0,-0.15 -0.15,0 0,0 h 3.85 c 0.082,0 0.15,-0.067 0.15,-0.15 v -8 c 0,-0.083 -0.068,-0.15 -0.15,-0.15 h -3.85 c -0.15,0 0,0.15 0,0 v -7.7 c 0,-0.15 -0.15,0 0,0 h 3.85 c 0.082,0 0.15,-0.067 0.15,-0.15 v -8 c 0,-0.083 -0.068,-0.15 -0.15,-0.15 h -3.85 c -0.15,0 0,0.15 0,0 v -7.7 c 0,-0.15 -0.15,0 0,0 h 3.85 c 0.082,0 0.15,-0.067 0.15,-0.15 v -8 c 0,-0.083 -0.068,-0.15 -0.15,-0.15 h -3.85 c -0.15,0 0,0.15 0,0 v -7.7 c 0,-0.15 -0.15,0 0,0 h 3.85 c 0.082,0 0.15,-0.067 0.15,-0.15 v -8 c 0,-0.083 -0.068,-0.15 -0.15,-0.15 h -3.85 c -0.15,0 0,0.15 0,0 v -7.7 c 0,-0.15 -0.15,0 0,0 h 3.85 c 0.082,0 0.15,-0.067 0.15,-0.15 v -8 c 0,-0.083 -0.068,-0.15 -0.15,-0.15 h -3.85 c -0.15,0 0,0.15 0,0 v -7.7 c 0,-0.15 -0.15,0 0,0 h 3.85 c 0.082,0 0.15,-0.067 0.15,-0.15 v -12 c 0,-0.083 -0.068,-0.15 -0.15,-0.15 h -4 -192 -4 c -0.083,0 -0.15,0.067 -0.15,0.15 v 12 c 0,0.083 0.067,0.15 0.15,0.15 h 3.85 c 0.15,0 0,-0.15 0,0 v 7.7 c 0,0.15 0.15,0 0,0 h -3.85 c -0.083,0 -0.15,0.067 -0.15,0.15 v 8 c 0,0.083 0.067,0.15 0.15,0.15 h 3.85 c 0.15,0 0,-0.15 0,0 v 7.7 c 0,0.15 0.15,0 0,0 h -3.85 c -0.083,0 -0.15,0.067 -0.15,0.15 v 8 c 0,0.083 0.067,0.15 0.15,0.15 h 3.85 c 0.15,0 0,-0.15 0,0 v 7.7 c 0,0.15 0.15,0 0,0 h -3.85 c -0.083,0 -0.15,0.067 -0.15,0.15 v 8 c 0,0.083 0.067,0.15 0.15,0.15 h 3.85 c 0.15,0 0,-0.15 0,0 v 7.7 c 0,0.15 0.15,0 0,0 h -3.85 c -0.083,0 -0.15,0.067 -0.15,0.15 v 8 c 0,0.083 0.067,0.15 0.15,0.15 h 3.85 c 0.15,0 0,-0.15 0,0 v 7.7 c 0,0.15 0.15,0 0,0 h -3.85 c -0.083,0 -0.15,0.067 -0.15,0.15 v 8 c 0,0.083 0.067,0.15 0.15,0.15 h 3.85 c 0.15,0 0,-0.15 0,0 v 7.7 c 0,0.15 0.15,0 0,0 h -3.85 c -0.083,0 -0.15,0.067 -0.15,0.15 v 8 c 0,0.083 0.067,0.15 0.15,0.15 h 3.85 c 0.15,0 0,-0.15 0,0 v 7.7 c 0,0.15 0.15,0 0,0 h -3.85 c -0.083,0 -0.15,0.067 -0.15,0.15 v 8 c 0,0.083 0.067,0.15 0.15,0.15 h 3.85 c 0.15,0 0,-0.15 0,0 v 7.7 c 0,0.15 0.15,0 0,0 h -3.85 c -0.083,0 -0.15,0.067 -0.15,0.15 v 8 c 0,0.083 0.067,0.15 0.15,0.15 h 3.85 c 0.15,0 0,-0.15 0,0 v 7.7 c 0,0.15 0.15,0 0,0 h -3.85 c -0.083,0 -0.15,0.067 -0.15,0.15 v 8 c 0,0.083 0.067,0.15 0.15,0.15 h 3.85 c 0.15,0 0,-0.15 0,0 v 7.7 c 0,0.15 0.15,0 0,0 h -3.85 c -0.083,0 -0.15,0.067 -0.15,0.15 v 8 c 0,0.083 0.067,0.15 0.15,0.15 h 3.85 c 0.15,0 0,-0.15 0,0 v 7.7 c 0,0.15 0.15,0 0,0 h -3.85 c -0.083,0 -0.15,0.067 -0.15,0.15 v 12 4 c 0,0.083 0.067,0.15 0.15,0.15 z"
       stroke="#000000"
       stroke-width="0.3"
       id="path128" />
  </g>
  <g
     id="p-6"
     style="fill:none;stroke-linecap:round;stroke-linejoin:round"
     transform="translate(188.30411,-291.3266)">
    <path
       d="m 25.917,703.1 h 12 c 0.082,0 0.15,-0.067 0.15,-0.15 v -3.85 c 0,-0.15 -0.15,0 0,0 h 7.7 c 0.15,0 0,-0.15 0,0 v 3.85 c 0,0.083 0.067,0.15 0.15,0.15 h 8 c 0.082,0 0.15,-0.067 0.15,-0.15 v -3.85 c 0,-0.15 -0.15,0 0,0 h 7.7 c 0.15,0 0,-0.15 0,0 v 3.85 c 0,0.083 0.067,0.15 0.15,0.15 h 8 c 0.082,0 0.15,-0.067 0.15,-0.15 v -3.85 c 0,-0.15 -0.15,0 0,0 h 7.7 c 0.15,0 0,-0.15 0,0 v 3.85 c 0,0.083 0.067,0.15 0.15,0.15 h 8 c 0.082,0 0.15,-0.067 0.15,-0.15 v -3.85 c 0,-0.15 -0.15,0 0,0 h 7.7 c 0.15,0 0,-0.15 0,0 v 3.85 c 0,0.083 0.067,0.15 0.15,0.15 h 8 c 0.082,0 0.15,-0.067 0.15,-0.15 v -3.85 c 0,-0.15 -0.15,0 0,0 h 7.7 c 0.15,0 0,-0.15 0,0 v 3.85 c 0,0.083 0.067,0.15 0.15,0.15 h 8 c 0.082,0 0.15,-0.067 0.15,-0.15 v -3.85 c 0,-0.15 -0.15,0 0,0 h 7.7 c 0.15,0 0,-0.15 0,0 v 3.85 c 0,0.083 0.067,0.15 0.15,0.15 h 8 c 0.082,0 0.15,-0.067 0.15,-0.15 v -3.85 c 0,-0.15 -0.15,0 0,0 h 7.7 c 0.15,0 0,-0.15 0,0 v 3.85 c 0,0.083 0.067,0.15 0.15,0.15 h 8 c 0.082,0 0.15,-0.067 0.15,-0.15 v -3.85 c 0,-0.15 -0.15,0 0,0 h 7.7 c 0.15,0 0,-0.15 0,0 v 3.85 c 0,0.083 0.067,0.15 0.15,0.15 h 8 c 0.082,0 0.15,-0.067 0.15,-0.15 v -3.85 c 0,-0.15 -0.15,0 0,0 h 7.7 c 0.15,0 0,-0.15 0,0 v 3.85 c 0,0.083 0.067,0.15 0.15,0.15 h 8 c 0.082,0 0.15,-0.067 0.15,-0.15 v -3.85 c 0,-0.15 -0.15,0 0,0 h 7.7 c 0.15,0 0,-0.15 0,0 v 3.85 c 0,0.083 0.067,0.15 0.15,0.15 h 8 c 0.082,0 0.15,-0.067 0.15,-0.15 v -3.85 c 0,-0.15 -0.15,0 0,0 h 7.7 c 0.15,0 0,-0.15 0,0 v 3.85 c 0,0.083 0.067,0.15 0.15,0.15 h 12 4 c 0.082,0 0.15,-0.067 0.15,-0.15 v -4 -14 c 0,-0.083 -0.068,-0.15 -0.15,-0.15 h -3.85 c -0.15,0 0,0.15 0,0 v -7.7 c 0,-0.15 -0.15,0 0,0 h 3.85 c 0.082,0 0.15,-0.067 0.15,-0.15 v -8 c 0,-0.083 -0.068,-0.15 -0.15,-0.15 h -3.85 c -0.15,0 0,0.15 0,0 v -7.7 c 0,-0.15 -0.15,0 0,0 h 3.85 c 0.082,0 0.15,-0.067 0.15,-0.15 v -8 c 0,-0.083 -0.068,-0.15 -0.15,-0.15 h -3.85 c -0.15,0 0,0.15 0,0 v -7.7 c 0,-0.15 -0.15,0 0,0 h 3.85 c 0.082,0 0.15,-0.067 0.15,-0.15 v -8 c 0,-0.083 -0.068,-0.15 -0.15,-0.15 h -3.85 c -0.15,0 0,0.15 0,0 v -7.7 c 0,-0.15 -0.15,0 0,0 h 3.85 c 0.082,0 0.15,-0.067 0.15,-0.15 v -8 c 0,-0.083 -0.068,-0.15 -0.15,-0.15 h -3.85 c -0.15,0 0,0.15 0,0 v -7.7 c 0,-0.15 -0.15,0 0,0 h 3.85 c 0.082,0 0.15,-0.067 0.15,-0.15 v -8 c 0,-0.083 -0.068,-0.15 -0.15,-0.15 h -3.85 c -0.15,0 0,0.15 0,0 v -7.7 c 0,-0.15 -0.15,0 0,0 h 3.85 c 0.082,0 0.15,-0.067 0.15,-0.15 v -8 c 0,-0.083 -0.068,-0.15 -0.15,-0.15 h -3.85 c -0.15,0 0,0.15 0,0 v -7.7 c 0,-0.15 -0.15,0 0,0 h 3.85 c 0.082,0 0.15,-0.067 0.15,-0.15 v -8 c 0,-0.083 -0.068,-0.15 -0.15,-0.15 h -3.85 c -0.15,0 0,0.15 0,0 v -7.7 c 0,-0.15 -0.15,0 0,0 h 3.85 c 0.082,0 0.15,-0.067 0.15,-0.15 v -8 c 0,-0.083 -0.068,-0.15 -0.15,-0.15 h -3.85 c -0.15,0 0,0.15 0,0 v -7.7 c 0,-0.15 -0.15,0 0,0 h 3.85 c 0.082,0 0.15,-0.067 0.15,-0.15 v -8 c 0,-0.083 -0.068,-0.15 -0.15,-0.15 h -3.85 c -0.15,0 0,0.15 0,0 v -7.7 c 0,-0.15 -0.15,0 0,0 h 3.85 c 0.082,0 0.15,-0.067 0.15,-0.15 v -14 c 0,-0.083 -0.068,-0.15 -0.15,-0.15 h -3.85 c -0.15,0 0,0.15 0,0 v -11.85 c 0,-0.083 -0.068,-0.15 -0.15,-0.15 h -192 c -0.083,0 -0.15,0.067 -0.15,0.15 v 11.85 c 0,0.15 0.15,0 0,0 h -3.85 c -0.083,0 -0.15,0.067 -0.15,0.15 v 14 c 0,0.083 0.067,0.15 0.15,0.15 h 3.85 c 0.15,0 0,-0.15 0,0 v 7.7 c 0,0.15 0.15,0 0,0 h -3.85 c -0.083,0 -0.15,0.067 -0.15,0.15 v 8 c 0,0.083 0.067,0.15 0.15,0.15 h 3.85 c 0.15,0 0,-0.15 0,0 v 7.7 c 0,0.15 0.15,0 0,0 h -3.85 c -0.083,0 -0.15,0.067 -0.15,0.15 v 8 c 0,0.083 0.067,0.15 0.15,0.15 h 3.85 c 0.15,0 0,-0.15 0,0 v 7.7 c 0,0.15 0.15,0 0,0 h -3.85 c -0.083,0 -0.15,0.067 -0.15,0.15 v 8 c 0,0.083 0.067,0.15 0.15,0.15 h 3.85 c 0.15,0 0,-0.15 0,0 v 7.7 c 0,0.15 0.15,0 0,0 h -3.85 c -0.083,0 -0.15,0.067 -0.15,0.15 v 8 c 0,0.083 0.067,0.15 0.15,0.15 h 3.85 c 0.15,0 0,-0.15 0,0 v 7.7 c 0,0.15 0.15,0 0,0 h -3.85 c -0.083,0 -0.15,0.067 -0.15,0.15 v 8 c 0,0.083 0.067,0.15 0.15,0.15 h 3.85 c 0.15,0 0,-0.15 0,0 v 7.7 c 0,0.15 0.15,0 0,0 h -3.85 c -0.083,0 -0.15,0.067 -0.15,0.15 v 8 c 0,0.083 0.067,0.15 0.15,0.15 h 3.85 c 0.15,0 0,-0.15 0,0 v 7.7 c 0,0.15 0.15,0 0,0 h -3.85 c -0.083,0 -0.15,0.067 -0.15,0.15 v 8 c 0,0.083 0.067,0.15 0.15,0.15 h 3.85 c 0.15,0 0,-0.15 0,0 v 7.7 c 0,0.15 0.15,0 0,0 h -3.85 c -0.083,0 -0.15,0.067 -0.15,0.15 v 8 c 0,0.083 0.067,0.15 0.15,0.15 h 3.85 c 0.15,0 0,-0.15 0,0 v 7.7 c 0,0.15 0.15,0 0,0 h -3.85 c -0.083,0 -0.15,0.067 -0.15,0.15 v 8 c 0,0.083 0.067,0.15 0.15,0.15 h 3.85 c 0.15,0 0,-0.15 0,0 v 7.7 c 0,0.15 0.15,0 0,0 h -3.85 c -0.083,0 -0.15,0.067 -0.15,0.15 v 14 4 c 0,0.083 0.067,0.15 0.15,0.15 z"
       stroke="#000000"
       stroke-width="0.3"
       id="path131" />
  </g>
  <g
     id="p-7"
     style="fill:none;stroke-linecap:round;stroke-linejoin:round"
     transform="translate(-21.617,8.5393445)">
    <path
       d="m 25.917,504.8 h 12 c 0.082,0 0.15,-0.067 0.15,-0.15 v -3.85 c 0,-0.15 -0.15,0 0,0 h 7.7 c 0.15,0 0,-0.15 0,0 v 3.85 c 0,0.083 0.067,0.15 0.15,0.15 h 8 c 0.082,0 0.15,-0.067 0.15,-0.15 v -3.85 c 0,-0.15 -0.15,0 0,0 h 7.7 c 0.15,0 0,-0.15 0,0 v 3.85 c 0,0.083 0.067,0.15 0.15,0.15 h 8 c 0.082,0 0.15,-0.067 0.15,-0.15 v -3.85 c 0,-0.15 -0.15,0 0,0 h 7.7 c 0.15,0 0,-0.15 0,0 v 3.85 c 0,0.083 0.067,0.15 0.15,0.15 h 8 c 0.082,0 0.15,-0.067 0.15,-0.15 v -3.85 c 0,-0.15 -0.15,0 0,0 h 7.7 c 0.15,0 0,-0.15 0,0 v 3.85 c 0,0.083 0.067,0.15 0.15,0.15 h 8 c 0.082,0 0.15,-0.067 0.15,-0.15 v -3.85 c 0,-0.15 -0.15,0 0,0 h 7.7 c 0.15,0 0,-0.15 0,0 v 3.85 c 0,0.083 0.067,0.15 0.15,0.15 h 8 c 0.082,0 0.15,-0.067 0.15,-0.15 v -3.85 c 0,-0.15 -0.15,0 0,0 h 7.7 c 0.15,0 0,-0.15 0,0 v 3.85 c 0,0.083 0.067,0.15 0.15,0.15 h 8 c 0.082,0 0.15,-0.067 0.15,-0.15 v -3.85 c 0,-0.15 -0.15,0 0,0 h 7.7 c 0.15,0 0,-0.15 0,0 v 3.85 c 0,0.083 0.067,0.15 0.15,0.15 h 8 c 0.082,0 0.15,-0.067 0.15,-0.15 v -3.85 c 0,-0.15 -0.15,0 0,0 h 7.7 c 0.15,0 0,-0.15 0,0 v 3.85 c 0,0.083 0.067,0.15 0.15,0.15 h 8 c 0.082,0 0.15,-0.067 0.15,-0.15 v -3.85 c 0,-0.15 -0.15,0 0,0 h 7.7 c 0.15,0 0,-0.15 0,0 v 3.85 c 0,0.083 0.067,0.15 0.15,0.15 h 8 c 0.082,0 0.15,-0.067 0.15,-0.15 v -3.85 c 0,-0.15 -0.15,0 0,0 h 7.7 c 0.15,0 0,-0.15 0,0 v 3.85 c 0,0.083 0.067,0.15 0.15,0.15 h 8 c 0.082,0 0.15,-0.067 0.15,-0.15 v -3.85 c 0,-0.15 -0.15,0 0,0 h 7.7 c 0.15,0 0,-0.15 0,0 v 3.85 c 0,0.083 0.067,0.15 0.15,0.15 h 12 4 c 0.082,0 0.15,-0.067 0.15,-0.15 v -4 -8 c 0,-0.083 -0.068,-0.15 -0.15,-0.15 h -3.85 c -0.15,0 0,0.15 0,0 v -7.7 c 0,-0.15 -0.15,0 0,0 h 3.85 c 0.082,0 0.15,-0.067 0.15,-0.15 v -8 c 0,-0.083 -0.068,-0.15 -0.15,-0.15 h -3.85 c -0.15,0 0,0.15 0,0 v -7.7 c 0,-0.15 -0.15,0 0,0 h 3.85 c 0.082,0 0.15,-0.067 0.15,-0.15 v -8 c 0,-0.083 -0.068,-0.15 -0.15,-0.15 h -4 -192 -4 c -0.083,0 -0.15,0.067 -0.15,0.15 v 8 c 0,0.083 0.067,0.15 0.15,0.15 h 3.85 c 0.15,0 0,-0.15 0,0 v 7.7 c 0,0.15 0.15,0 0,0 h -3.85 c -0.083,0 -0.15,0.067 -0.15,0.15 v 8 c 0,0.083 0.067,0.15 0.15,0.15 h 3.85 c 0.15,0 0,-0.15 0,0 v 7.7 c 0,0.15 0.15,0 0,0 h -3.85 c -0.083,0 -0.15,0.067 -0.15,0.15 v 8 4 c 0,0.083 0.067,0.15 0.15,0.15 z"
       stroke="#000000"
       stroke-width="0.3"
       id="path134" />
  </g>
  <g
     id="p-8"
     style="fill:none;stroke-linecap:round;stroke-linejoin:round"
     transform="translate(-21.617,5.419127)">
    <path
       d="m 25.917,458.5 h 12 c 0.082,0 0.15,-0.067 0.15,-0.15 v -3.85 c 0,-0.15 -0.15,0 0,0 h 7.7 c 0.15,0 0,-0.15 0,0 v 3.85 c 0,0.083 0.067,0.15 0.15,0.15 h 8 c 0.082,0 0.15,-0.067 0.15,-0.15 v -3.85 c 0,-0.15 -0.15,0 0,0 h 7.7 c 0.15,0 0,-0.15 0,0 v 3.85 c 0,0.083 0.067,0.15 0.15,0.15 h 8 c 0.082,0 0.15,-0.067 0.15,-0.15 v -3.85 c 0,-0.15 -0.15,0 0,0 h 7.7 c 0.15,0 0,-0.15 0,0 v 3.85 c 0,0.083 0.067,0.15 0.15,0.15 h 8 c 0.082,0 0.15,-0.067 0.15,-0.15 v -3.85 c 0,-0.15 -0.15,0 0,0 h 7.7 c 0.15,0 0,-0.15 0,0 v 3.85 c 0,0.083 0.067,0.15 0.15,0.15 h 8 c 0.082,0 0.15,-0.067 0.15,-0.15 v -3.85 c 0,-0.15 -0.15,0 0,0 h 7.7 c 0.15,0 0,-0.15 0,0 v 3.85 c 0,0.083 0.067,0.15 0.15,0.15 h 8 c 0.082,0 0.15,-0.067 0.15,-0.15 v -3.85 c 0,-0.15 -0.15,0 0,0 h 7.7 c 0.15,0 0,-0.15 0,0 v 3.85 c 0,0.083 0.067,0.15 0.15,0.15 h 8 c 0.082,0 0.15,-0.067 0.15,-0.15 v -3.85 c 0,-0.15 -0.15,0 0,0 h 7.7 c 0.15,0 0,-0.15 0,0 v 3.85 c 0,0.083 0.067,0.15 0.15,0.15 h 8 c 0.082,0 0.15,-0.067 0.15,-0.15 v -3.85 c 0,-0.15 -0.15,0 0,0 h 7.7 c 0.15,0 0,-0.15 0,0 v 3.85 c 0,0.083 0.067,0.15 0.15,0.15 h 8 c 0.082,0 0.15,-0.067 0.15,-0.15 v -3.85 c 0,-0.15 -0.15,0 0,0 h 7.7 c 0.15,0 0,-0.15 0,0 v 3.85 c 0,0.083 0.067,0.15 0.15,0.15 h 8 c 0.082,0 0.15,-0.067 0.15,-0.15 v -3.85 c 0,-0.15 -0.15,0 0,0 h 7.7 c 0.15,0 0,-0.15 0,0 v 3.85 c 0,0.083 0.067,0.15 0.15,0.15 h 8 c 0.082,0 0.15,-0.067 0.15,-0.15 v -3.85 c 0,-0.15 -0.15,0 0,0 h 7.7 c 0.15,0 0,-0.15 0,0 v 3.85 c 0,0.083 0.067,0.15 0.15,0.15 h 12 4 c 0.082,0 0.15,-0.067 0.15,-0.15 v -4 -9.8 c 0,-0.083 -0.068,-0.15 -0.15,-0.15 h -3.85 c -0.15,0 0,0.15 0,0 v -7.7 c 0,-0.15 -0.15,0 0,0 h 3.85 c 0.082,0 0.15,-0.067 0.15,-0.15 v -9.8 c 0,-0.083 -0.068,-0.15 -0.15,-0.15 h -3.85 c -0.15,0 0,0.15 0,0 v -5.713 c 0,-0.15 -0.15,0 0,0 h 3.85 c 0.082,0 0.15,-0.068 0.15,-0.15 v -5.987 c 0,-0.083 -0.068,-0.15 -0.15,-0.15 h -200 c -0.083,0 -0.15,0.067 -0.15,0.15 v 5.987 c 0,0.082 0.067,0.15 0.15,0.15 h 3.85 c 0.15,0 0,-0.15 0,0 v 5.713 c 0,0.15 0.15,0 0,0 h -3.85 c -0.083,0 -0.15,0.067 -0.15,0.15 v 9.8 c 0,0.083 0.067,0.15 0.15,0.15 h 3.85 c 0.15,0 0,-0.15 0,0 v 7.7 c 0,0.15 0.15,0 0,0 h -3.85 c -0.083,0 -0.15,0.067 -0.15,0.15 v 9.8 4 c 0,0.083 0.067,0.15 0.15,0.15 z"
       stroke="#000000"
       stroke-width="0.3"
       id="path137" />
  </g>
  <g
     id="p-9"
     style="fill:none;stroke-linecap:round;stroke-linejoin:round"
     transform="translate(-21.617,1.014353)">
    <path
       d="m 25.917,408.6 h 11.85 c 0.15,0 0,-0.15 0,0 v 3.85 c 0,0.083 0.067,0.15 0.15,0.15 h 8 c 0.082,0 0.15,-0.067 0.15,-0.15 v -3.85 c 0,-0.15 -0.15,0 0,0 h 7.7 c 0.15,0 0,-0.15 0,0 v 3.85 c 0,0.083 0.067,0.15 0.15,0.15 h 8 c 0.082,0 0.15,-0.067 0.15,-0.15 v -3.85 c 0,-0.15 -0.15,0 0,0 h 7.7 c 0.15,0 0,-0.15 0,0 v 3.85 c 0,0.083 0.067,0.15 0.15,0.15 h 8 c 0.082,0 0.15,-0.067 0.15,-0.15 v -3.85 c 0,-0.15 -0.15,0 0,0 h 7.7 c 0.15,0 0,-0.15 0,0 v 3.85 c 0,0.083 0.067,0.15 0.15,0.15 h 8 c 0.082,0 0.15,-0.067 0.15,-0.15 v -3.85 c 0,-0.15 -0.15,0 0,0 h 7.7 c 0.15,0 0,-0.15 0,0 v 3.85 c 0,0.083 0.067,0.15 0.15,0.15 h 8 c 0.082,0 0.15,-0.067 0.15,-0.15 v -3.85 c 0,-0.15 -0.15,0 0,0 h 7.7 c 0.15,0 0,-0.15 0,0 v 3.85 c 0,0.083 0.067,0.15 0.15,0.15 h 8 c 0.082,0 0.15,-0.067 0.15,-0.15 v -3.85 c 0,-0.15 -0.15,0 0,0 h 7.7 c 0.15,0 0,-0.15 0,0 v 3.85 c 0,0.083 0.067,0.15 0.15,0.15 h 8 c 0.082,0 0.15,-0.067 0.15,-0.15 v -3.85 c 0,-0.15 -0.15,0 0,0 h 7.7 c 0.15,0 0,-0.15 0,0 v 3.85 c 0,0.083 0.067,0.15 0.15,0.15 h 8 c 0.082,0 0.15,-0.067 0.15,-0.15 v -3.85 c 0,-0.15 -0.15,0 0,0 h 7.7 c 0.15,0 0,-0.15 0,0 v 3.85 c 0,0.083 0.067,0.15 0.15,0.15 h 8 c 0.082,0 0.15,-0.067 0.15,-0.15 v -3.85 c 0,-0.15 -0.15,0 0,0 h 7.7 c 0.15,0 0,-0.15 0,0 v 3.85 c 0,0.083 0.067,0.15 0.15,0.15 h 8 c 0.082,0 0.15,-0.067 0.15,-0.15 v -3.85 c 0,-0.15 -0.15,0 0,0 h 7.7 c 0.15,0 0,-0.15 0,0 v 3.85 c 0,0.083 0.067,0.15 0.15,0.15 h 8 c 0.082,0 0.15,-0.067 0.15,-0.15 v -3.85 c 0,-0.15 -0.15,0 0,0 h 11.85 c 0.082,0 0.15,-0.067 0.15,-0.15 V 396.6 c 0,-0.15 -0.15,0 0,0 h 3.85 c 0.082,0 0.15,-0.067 0.15,-0.15 v -8 c 0,-0.083 -0.068,-0.15 -0.15,-0.15 h -3.85 c -0.15,0 0,0.15 0,0 v -7.7 c 0,-0.15 -0.15,0 0,0 h 3.85 c 0.082,0 0.15,-0.067 0.15,-0.15 v -8 c 0,-0.083 -0.068,-0.15 -0.15,-0.15 h -3.85 c -0.15,0 0,0.15 0,0 v -7.7 c 0,-0.15 -0.15,0 0,0 h 3.85 c 0.082,0 0.15,-0.067 0.15,-0.15 v -8 c 0,-0.083 -0.068,-0.15 -0.15,-0.15 h -3.85 c -0.15,0 0,0.15 0,0 v -7.7 c 0,-0.15 -0.15,0 0,0 h 3.85 c 0.082,0 0.15,-0.067 0.15,-0.15 v -8 c 0,-0.083 -0.068,-0.15 -0.15,-0.15 h -3.85 c -0.15,0 0,0.15 0,0 v -7.7 c 0,-0.15 -0.15,0 0,0 h 3.85 c 0.082,0 0.15,-0.067 0.15,-0.15 v -8 c 0,-0.083 -0.068,-0.15 -0.15,-0.15 h -3.85 c -0.15,0 0,0.15 0,0 v -7.7 c 0,-0.15 -0.15,0 0,0 h 3.85 c 0.082,0 0.15,-0.067 0.15,-0.15 v -8 c 0,-0.083 -0.068,-0.15 -0.15,-0.15 h -3.85 c -0.15,0 0,0.15 0,0 v -7.7 c 0,-0.15 -0.15,0 0,0 h 3.85 c 0.082,0 0.15,-0.067 0.15,-0.15 v -8 c 0,-0.083 -0.068,-0.15 -0.15,-0.15 h -3.85 c -0.15,0 0,0.15 0,0 v -7.7 c 0,-0.15 -0.15,0 0,0 h 3.85 c 0.082,0 0.15,-0.067 0.15,-0.15 v -8 c 0,-0.083 -0.068,-0.15 -0.15,-0.15 h -3.85 c -0.15,0 0,0.15 0,0 v -7.7 c 0,-0.15 -0.15,0 0,0 h 3.85 c 0.082,0 0.15,-0.067 0.15,-0.15 v -8 c 0,-0.083 -0.068,-0.15 -0.15,-0.15 h -3.85 c -0.15,0 0,0.15 0,0 v -7.7 c 0,-0.15 -0.15,0 0,0 h 3.85 c 0.082,0 0.15,-0.067 0.15,-0.15 v -8 c 0,-0.083 -0.068,-0.15 -0.15,-0.15 h -3.85 c -0.15,0 0,0.15 0,0 v -7.7 c 0,-0.15 -0.15,0 0,0 h 3.85 c 0.082,0 0.15,-0.067 0.15,-0.15 v -8 c 0,-0.083 -0.068,-0.15 -0.15,-0.15 h -3.85 c -0.15,0 0,0.15 0,0 v -11.85 c 0,-0.083 -0.068,-0.15 -0.15,-0.15 h -11.85 c -0.15,0 0,0.15 0,0 v -3.85 c 0,-0.083 -0.068,-0.15 -0.15,-0.15 h -8 c -0.083,0 -0.15,0.067 -0.15,0.15 v 3.85 c 0,0.15 0.15,0 0,0 h -7.7 c -0.15,0 0,0.15 0,0 v -3.85 c 0,-0.083 -0.068,-0.15 -0.15,-0.15 h -8 c -0.083,0 -0.15,0.067 -0.15,0.15 v 3.85 c 0,0.15 0.15,0 0,0 h -7.7 c -0.15,0 0,0.15 0,0 v -3.85 c 0,-0.083 -0.068,-0.15 -0.15,-0.15 h -8 c -0.083,0 -0.15,0.067 -0.15,0.15 v 3.85 c 0,0.15 0.15,0 0,0 h -7.7 c -0.15,0 0,0.15 0,0 v -3.85 c 0,-0.083 -0.068,-0.15 -0.15,-0.15 h -8 c -0.083,0 -0.15,0.067 -0.15,0.15 v 3.85 c 0,0.15 0.15,0 0,0 h -7.7 c -0.15,0 0,0.15 0,0 v -3.85 c 0,-0.083 -0.068,-0.15 -0.15,-0.15 h -8 c -0.083,0 -0.15,0.067 -0.15,0.15 v 3.85 c 0,0.15 0.15,0 0,0 h -7.7 c -0.15,0 0,0.15 0,0 v -3.85 c 0,-0.083 -0.068,-0.15 -0.15,-0.15 h -8 c -0.083,0 -0.15,0.067 -0.15,0.15 v 3.85 c 0,0.15 0.15,0 0,0 h -7.7 c -0.15,0 0,0.15 0,0 v -3.85 c 0,-0.083 -0.068,-0.15 -0.15,-0.15 h -8 c -0.083,0 -0.15,0.067 -0.15,0.15 v 3.85 c 0,0.15 0.15,0 0,0 h -7.7 c -0.15,0 0,0.15 0,0 v -3.85 c 0,-0.083 -0.068,-0.15 -0.15,-0.15 h -8 c -0.083,0 -0.15,0.067 -0.15,0.15 v 3.85 c 0,0.15 0.15,0 0,0 h -7.7 c -0.15,0 0,0.15 0,0 v -3.85 c 0,-0.083 -0.068,-0.15 -0.15,-0.15 h -8 c -0.083,0 -0.15,0.067 -0.15,0.15 v 3.85 c 0,0.15 0.15,0 0,0 h -7.7 c -0.15,0 0,0.15 0,0 v -3.85 c 0,-0.083 -0.068,-0.15 -0.15,-0.15 h -8 c -0.083,0 -0.15,0.067 -0.15,0.15 v 3.85 c 0,0.15 0.15,0 0,0 h -7.7 c -0.15,0 0,0.15 0,0 v -3.85 c 0,-0.083 -0.068,-0.15 -0.15,-0.15 h -8 c -0.083,0 -0.15,0.067 -0.15,0.15 v 3.85 c 0,0.15 0.15,0 0,0 h -11.85 c -0.083,0 -0.15,0.067 -0.15,0.15 v 11.85 c 0,0.15 0.15,0 0,0 h -3.85 c -0.083,0 -0.15,0.067 -0.15,0.15 v 8 c 0,0.083 0.067,0.15 0.15,0.15 h 3.85 c 0.15,0 0,-0.15 0,0 v 7.7 c 0,0.15 0.15,0 0,0 h -3.85 c -0.083,0 -0.15,0.067 -0.15,0.15 v 8 c 0,0.083 0.067,0.15 0.15,0.15 h 3.85 c 0.15,0 0,-0.15 0,0 v 7.7 c 0,0.15 0.15,0 0,0 h -3.85 c -0.083,0 -0.15,0.067 -0.15,0.15 v 8 c 0,0.083 0.067,0.15 0.15,0.15 h 3.85 c 0.15,0 0,-0.15 0,0 v 7.7 c 0,0.15 0.15,0 0,0 h -3.85 c -0.083,0 -0.15,0.067 -0.15,0.15 v 8 c 0,0.083 0.067,0.15 0.15,0.15 h 3.85 c 0.15,0 0,-0.15 0,0 v 7.7 c 0,0.15 0.15,0 0,0 h -3.85 c -0.083,0 -0.15,0.067 -0.15,0.15 v 8 c 0,0.083 0.067,0.15 0.15,0.15 h 3.85 c 0.15,0 0,-0.15 0,0 v 7.7 c 0,0.15 0.15,0 0,0 h -3.85 c -0.083,0 -0.15,0.067 -0.15,0.15 v 8 c 0,0.083 0.067,0.15 0.15,0.15 h 3.85 c 0.15,0 0,-0.15 0,0 v 7.7 c 0,0.15 0.15,0 0,0 h -3.85 c -0.083,0 -0.15,0.067 -0.15,0.15 v 8 c 0,0.083 0.067,0.15 0.15,0.15 h 3.85 c 0.15,0 0,-0.15 0,0 v 7.7 c 0,0.15 0.15,0 0,0 h -3.85 c -0.083,0 -0.15,0.067 -0.15,0.15 v 8 c 0,0.083 0.067,0.15 0.15,0.15 h 3.85 c 0.15,0 0,-0.15 0,0 v 7.7 c 0,0.15 0.15,0 0,0 h -3.85 c -0.083,0 -0.15,0.067 -0.15,0.15 v 8 c 0,0.083 0.067,0.15 0.15,0.15 h 3.85 c 0.15,0 0,-0.15 0,0 v 7.7 c 0,0.15 0.15,0 0,0 h -3.85 c -0.083,0 -0.15,0.067 -0.15,0.15 v 8 c 0,0.083 0.067,0.15 0.15,0.15 h 3.85 c 0.15,0 0,-0.15 0,0 v 7.7 c 0,0.15 0.15,0 0,0 h -3.85 c -0.083,0 -0.15,0.067 -0.15,0.15 v 8 c 0,0.083 0.067,0.15 0.15,0.15 h 3.85 c 0.15,0 0,-0.15 0,0 v 11.85 c 0,0.083 0.067,0.15 0.15,0.15 z"
       stroke="#000000"
       stroke-width="0.3"
       id="path140" />
  </g>
  <g
     id="p-10"
     style="fill:none;stroke-linecap:round;stroke-linejoin:round"
     transform="translate(-21.617,-3.7574849)">
    <path
       d="m 25.917,206.3 h 11.85 c 0.15,0 0,-0.15 0,0 v 3.85 c 0,0.083 0.067,0.15 0.15,0.15 h 8 c 0.082,0 0.15,-0.067 0.15,-0.15 v -3.85 c 0,-0.15 -0.15,0 0,0 h 7.7 c 0.15,0 0,-0.15 0,0 v 3.85 c 0,0.083 0.067,0.15 0.15,0.15 h 8 c 0.082,0 0.15,-0.067 0.15,-0.15 v -3.85 c 0,-0.15 -0.15,0 0,0 h 7.7 c 0.15,0 0,-0.15 0,0 v 3.85 c 0,0.083 0.067,0.15 0.15,0.15 h 8 c 0.082,0 0.15,-0.067 0.15,-0.15 v -3.85 c 0,-0.15 -0.15,0 0,0 h 7.7 c 0.15,0 0,-0.15 0,0 v 3.85 c 0,0.083 0.067,0.15 0.15,0.15 h 8 c 0.082,0 0.15,-0.067 0.15,-0.15 v -3.85 c 0,-0.15 -0.15,0 0,0 h 7.7 c 0.15,0 0,-0.15 0,0 v 3.85 c 0,0.083 0.067,0.15 0.15,0.15 h 8 c 0.082,0 0.15,-0.067 0.15,-0.15 v -3.85 c 0,-0.15 -0.15,0 0,0 h 7.7 c 0.15,0 0,-0.15 0,0 v 3.85 c 0,0.083 0.067,0.15 0.15,0.15 h 8 c 0.082,0 0.15,-0.067 0.15,-0.15 v -3.85 c 0,-0.15 -0.15,0 0,0 h 7.7 c 0.15,0 0,-0.15 0,0 v 3.85 c 0,0.083 0.067,0.15 0.15,0.15 h 8 c 0.082,0 0.15,-0.067 0.15,-0.15 v -3.85 c 0,-0.15 -0.15,0 0,0 h 7.7 c 0.15,0 0,-0.15 0,0 v 3.85 c 0,0.083 0.067,0.15 0.15,0.15 h 8 c 0.082,0 0.15,-0.067 0.15,-0.15 v -3.85 c 0,-0.15 -0.15,0 0,0 h 7.7 c 0.15,0 0,-0.15 0,0 v 3.85 c 0,0.083 0.067,0.15 0.15,0.15 h 8 c 0.082,0 0.15,-0.067 0.15,-0.15 v -3.85 c 0,-0.15 -0.15,0 0,0 h 7.7 c 0.15,0 0,-0.15 0,0 v 3.85 c 0,0.083 0.067,0.15 0.15,0.15 h 8 c 0.082,0 0.15,-0.067 0.15,-0.15 v -3.85 c 0,-0.15 -0.15,0 0,0 h 7.7 c 0.15,0 0,-0.15 0,0 v 3.85 c 0,0.083 0.067,0.15 0.15,0.15 h 8 c 0.082,0 0.15,-0.067 0.15,-0.15 v -3.85 c 0,-0.15 -0.15,0 0,0 h 11.85 c 0.082,0 0.15,-0.067 0.15,-0.15 V 194.3 c 0,-0.15 -0.15,0 0,0 h 3.85 c 0.082,0 0.15,-0.067 0.15,-0.15 v -8 c 0,-0.083 -0.068,-0.15 -0.15,-0.15 h -3.85 c -0.15,0 0,0.15 0,0 v -7.7 c 0,-0.15 -0.15,0 0,0 h 3.85 c 0.082,0 0.15,-0.067 0.15,-0.15 v -8 c 0,-0.083 -0.068,-0.15 -0.15,-0.15 h -3.85 c -0.15,0 0,0.15 0,0 v -7.7 c 0,-0.15 -0.15,0 0,0 h 3.85 c 0.082,0 0.15,-0.067 0.15,-0.15 v -8 c 0,-0.083 -0.068,-0.15 -0.15,-0.15 h -3.85 c -0.15,0 0,0.15 0,0 v -7.7 c 0,-0.15 -0.15,0 0,0 h 3.85 c 0.082,0 0.15,-0.067 0.15,-0.15 v -8 c 0,-0.083 -0.068,-0.15 -0.15,-0.15 h -3.85 c -0.15,0 0,0.15 0,0 v -7.7 c 0,-0.15 -0.15,0 0,0 h 3.85 c 0.082,0 0.15,-0.067 0.15,-0.15 v -8 c 0,-0.083 -0.068,-0.15 -0.15,-0.15 h -3.85 c -0.15,0 0,0.15 0,0 v -7.7 c 0,-0.15 -0.15,0 0,0 h 3.85 c 0.082,0 0.15,-0.067 0.15,-0.15 v -8 c 0,-0.083 -0.068,-0.15 -0.15,-0.15 h -3.85 c -0.15,0 0,0.15 0,0 v -7.7 c 0,-0.15 -0.15,0 0,0 h 3.85 c 0.082,0 0.15,-0.067 0.15,-0.15 v -8 c 0,-0.083 -0.068,-0.15 -0.15,-0.15 h -3.85 c -0.15,0 0,0.15 0,0 v -7.7 c 0,-0.15 -0.15,0 0,0 h 3.85 c 0.082,0 0.15,-0.067 0.15,-0.15 v -8 c 0,-0.083 -0.068,-0.15 -0.15,-0.15 h -3.85 c -0.15,0 0,0.15 0,0 v -7.7 c 0,-0.15 -0.15,0 0,0 h 3.85 c 0.082,0 0.15,-0.067 0.15,-0.15 v -8 c 0,-0.083 -0.068,-0.15 -0.15,-0.15 h -3.85 c -0.15,0 0,0.15 0,0 v -7.7 c 0,-0.15 -0.15,0 0,0 h 3.85 c 0.082,0 0.15,-0.067 0.15,-0.15 v -8 c 0,-0.083 -0.068,-0.15 -0.15,-0.15 h -3.85 c -0.15,0 0,0.15 0,0 v -7.7 c 0,-0.15 -0.15,0 0,0 h 3.85 c 0.082,0 0.15,-0.067 0.15,-0.15 v -8 c 0,-0.083 -0.068,-0.15 -0.15,-0.15 h -3.85 c -0.15,0 0,0.15 0,0 V 14.15 c 0,-0.083 -0.068,-0.15 -0.15,-0.15 h -11.85 c -0.15,0 0,0.15 0,0 v -3.85 c 0,-0.083 -0.068,-0.15 -0.15,-0.15 h -8 c -0.083,0 -0.15,0.067 -0.15,0.15 V 14 c 0,0.15 0.15,0 0,0 h -7.7 c -0.15,0 0,0.15 0,0 v -3.85 c 0,-0.083 -0.068,-0.15 -0.15,-0.15 h -8 c -0.083,0 -0.15,0.067 -0.15,0.15 V 14 c 0,0.15 0.15,0 0,0 h -7.7 c -0.15,0 0,0.15 0,0 v -3.85 c 0,-0.083 -0.068,-0.15 -0.15,-0.15 h -8 c -0.083,0 -0.15,0.067 -0.15,0.15 V 14 c 0,0.15 0.15,0 0,0 h -7.7 c -0.15,0 0,0.15 0,0 v -3.85 c 0,-0.083 -0.068,-0.15 -0.15,-0.15 h -8 c -0.083,0 -0.15,0.067 -0.15,0.15 V 14 c 0,0.15 0.15,0 0,0 h -7.7 c -0.15,0 0,0.15 0,0 v -3.85 c 0,-0.083 -0.068,-0.15 -0.15,-0.15 h -8 c -0.083,0 -0.15,0.067 -0.15,0.15 V 14 c 0,0.15 0.15,0 0,0 h -7.7 c -0.15,0 0,0.15 0,0 v -3.85 c 0,-0.083 -0.068,-0.15 -0.15,-0.15 h -8 c -0.083,0 -0.15,0.067 -0.15,0.15 V 14 c 0,0.15 0.15,0 0,0 h -7.7 c -0.15,0 0,0.15 0,0 v -3.85 c 0,-0.083 -0.068,-0.15 -0.15,-0.15 h -8 c -0.083,0 -0.15,0.067 -0.15,0.15 V 14 c 0,0.15 0.15,0 0,0 h -7.7 c -0.15,0 0,0.15 0,0 v -3.85 c 0,-0.083 -0.068,-0.15 -0.15,-0.15 h -8 c -0.083,0 -0.15,0.067 -0.15,0.15 V 14 c 0,0.15 0.15,0 0,0 h -7.7 c -0.15,0 0,0.15 0,0 v -3.85 c 0,-0.083 -0.068,-0.15 -0.15,-0.15 h -8 c -0.083,0 -0.15,0.067 -0.15,0.15 V 14 c 0,0.15 0.15,0 0,0 h -7.7 c -0.15,0 0,0.15 0,0 v -3.85 c 0,-0.083 -0.068,-0.15 -0.15,-0.15 h -8 c -0.083,0 -0.15,0.067 -0.15,0.15 V 14 c 0,0.15 0.15,0 0,0 h -7.7 c -0.15,0 0,0.15 0,0 v -3.85 c 0,-0.083 -0.068,-0.15 -0.15,-0.15 h -8 c -0.083,0 -0.15,0.067 -0.15,0.15 V 14 c 0,0.15 0.15,0 0,0 h -11.85 c -0.083,0 -0.15,0.067 -0.15,0.15 V 26 c 0,0.15 0.15,0 0,0 h -3.85 c -0.083,0 -0.15,0.067 -0.15,0.15 v 8 c 0,0.083 0.067,0.15 0.15,0.15 h 3.85 c 0.15,0 0,-0.15 0,0 V 42 c 0,0.15 0.15,0 0,0 h -3.85 c -0.083,0 -0.15,0.067 -0.15,0.15 v 8 c 0,0.083 0.067,0.15 0.15,0.15 h 3.85 c 0.15,0 0,-0.15 0,0 V 58 c 0,0.15 0.15,0 0,0 h -3.85 c -0.083,0 -0.15,0.067 -0.15,0.15 v 8 c 0,0.083 0.067,0.15 0.15,0.15 h 3.85 c 0.15,0 0,-0.15 0,0 V 74 c 0,0.15 0.15,0 0,0 h -3.85 c -0.083,0 -0.15,0.067 -0.15,0.15 v 8 c 0,0.083 0.067,0.15 0.15,0.15 h 3.85 c 0.15,0 0,-0.15 0,0 V 90 c 0,0.15 0.15,0 0,0 h -3.85 c -0.083,0 -0.15,0.067 -0.15,0.15 v 8 c 0,0.083 0.067,0.15 0.15,0.15 h 3.85 c 0.15,0 0,-0.15 0,0 v 7.7 c 0,0.15 0.15,0 0,0 h -3.85 c -0.083,0 -0.15,0.067 -0.15,0.15 v 8 c 0,0.083 0.067,0.15 0.15,0.15 h 3.85 c 0.15,0 0,-0.15 0,0 v 7.7 c 0,0.15 0.15,0 0,0 h -3.85 c -0.083,0 -0.15,0.067 -0.15,0.15 v 8 c 0,0.083 0.067,0.15 0.15,0.15 h 3.85 c 0.15,0 0,-0.15 0,0 v 7.7 c 0,0.15 0.15,0 0,0 h -3.85 c -0.083,0 -0.15,0.067 -0.15,0.15 v 8 c 0,0.083 0.067,0.15 0.15,0.15 h 3.85 c 0.15,0 0,-0.15 0,0 v 7.7 c 0,0.15 0.15,0 0,0 h -3.85 c -0.083,0 -0.15,0.067 -0.15,0.15 v 8 c 0,0.083 0.067,0.15 0.15,0.15 h 3.85 c 0.15,0 0,-0.15 0,0 v 7.7 c 0,0.15 0.15,0 0,0 h -3.85 c -0.083,0 -0.15,0.067 -0.15,0.15 v 8 c 0,0.083 0.067,0.15 0.15,0.15 h 3.85 c 0.15,0 0,-0.15 0,0 v 7.7 c 0,0.15 0.15,0 0,0 h -3.85 c -0.083,0 -0.15,0.067 -0.15,0.15 v 8 c 0,0.083 0.067,0.15 0.15,0.15 h 3.85 c 0.15,0 0,-0.15 0,0 v 11.85 c 0,0.083 0.067,0.15 0.15,0.15 z"
       stroke="#000000"
       stroke-width="0.3"
       id="path143" />
  </g>
</svg>
