<?xml version='1.0' encoding='us-ascii'?>
<svg height="817.80mm" viewBox="0.0 0.0 149.72 817.80" width="149.72mm" xmlns="http://www.w3.org/2000/svg" xmlns:cc="http://creativecommons.org/ns#" xmlns:dc="http://purl.org/dc/elements/1.1/" xmlns:inkscape="http://www.inkscape.org/namespaces/inkscape" xmlns:rdf="http://www.w3.org/1999/02/22-rdf-syntax-ns#" xmlns:svg="http://www.w3.org/2000/svg" xmlns:xlink="http://www.w3.org/1999/xlink">
<!--
IntegratedHingeBox - Box with lid and integraded hinge

Created with Boxes.py (https://festi.info/boxes.py)
Creation date: 2022-04-25 09:16:18
Command line (remove spaces between dashes): boxes IntegratedHingeBox - -FingerJoint_angle=90.0 - -FingerJoint_style=rectangular - -FingerJoint_surroundingspaces=2.0 - -FingerJoint_edge_width=1.0 - -FingerJoint_extra_length=0.0 - -FingerJoint_finger=2.0 - -FingerJoint_play=0.0 - -FingerJoint_space=2.0 - -FingerJoint_width=1.0 - -ChestHinge_hinge_strength=1.0 - -ChestHinge_pin_height=2.0 - -ChestHinge_play=0.1 - -x=100.0 - -y=100.0 - -h=100.0 - -outside=0 - -outside=1 - -lidheight=40.0 - -thickness=5 - -format=svg - -tabs=0.0 - -debug=0 - -labels=0 - -labels=1 - -reference=100 - -inner_corners=loop - -burn=0.15
Url: http://www.festi.info/IntegratedHingeBox?FingerJoint_angle=90.0&FingerJoint_style=rectangular&FingerJoint_surroundingspaces=2.0&FingerJoint_edge_width=1.0&FingerJoint_extra_length=0.0&FingerJoint_finger=2.0&FingerJoint_play=0.0&FingerJoint_space=2.0&FingerJoint_width=1.0&ChestHinge_hinge_strength=1.0&ChestHinge_pin_height=2.0&ChestHinge_play=0.1&x=100.0&y=100.0&h=100.0&outside=0&outside=1&lidheight=40.0&thickness=5&format=svg&tabs=0.0&debug=0&labels=0&labels=1&reference=100&inner_corners=loop&burn=0.15&render=1
SettingsUrl: http://www.festi.info/IntegratedHingeBox?FingerJoint_angle=90.0&FingerJoint_style=rectangular&FingerJoint_surroundingspaces=2.0&FingerJoint_edge_width=1.0&FingerJoint_extra_length=0.0&FingerJoint_finger=2.0&FingerJoint_play=0.0&FingerJoint_space=2.0&FingerJoint_width=1.0&ChestHinge_hinge_strength=1.0&ChestHinge_pin_height=2.0&ChestHinge_play=0.1&x=100.0&y=100.0&h=100.0&outside=0&outside=1&lidheight=40.0&thickness=5&format=svg&tabs=0.0&debug=0&labels=0&labels=1&reference=100&inner_corners=loop&burn=0.15
-->
<title>IntegratedHingeBox</title>
<metadata>
<rdf:RDF><cc:Work>
<dc:title>Box - IntegratedHingeBox</dc:title>
<dc:date>2022-04-25 09:16:18</dc:date>
<dc:source>http://www.festi.info/IntegratedHingeBox?FingerJoint_angle=90.0&amp;FingerJoint_style=rectangular&amp;FingerJoint_surroundingspaces=2.0&amp;FingerJoint_edge_width=1.0&amp;FingerJoint_extra_length=0.0&amp;FingerJoint_finger=2.0&amp;FingerJoint_play=0.0&amp;FingerJoint_space=2.0&amp;FingerJoint_width=1.0&amp;ChestHinge_hinge_strength=1.0&amp;ChestHinge_pin_height=2.0&amp;ChestHinge_play=0.1&amp;x=100.0&amp;y=100.0&amp;h=100.0&amp;outside=0&amp;outside=1&amp;lidheight=40.0&amp;thickness=5&amp;format=svg&amp;tabs=0.0&amp;debug=0&amp;labels=0&amp;labels=1&amp;reference=100&amp;inner_corners=loop&amp;burn=0.15&amp;render=1</dc:source>
<dc:description>Box with lid and integraded hinge

Created with Boxes.py (https://festi.info/boxes.py)
Command line: boxes IntegratedHingeBox --FingerJoint_angle=90.0 --FingerJoint_style=rectangular --FingerJoint_surroundingspaces=2.0 --FingerJoint_edge_width=1.0 --FingerJoint_extra_length=0.0 --FingerJoint_finger=2.0 --FingerJoint_play=0.0 --FingerJoint_space=2.0 --FingerJoint_width=1.0 --ChestHinge_hinge_strength=1.0 --ChestHinge_pin_height=2.0 --ChestHinge_play=0.1 --x=100.0 --y=100.0 --h=100.0 --outside=0 --outside=1 --lidheight=40.0 --thickness=5 --format=svg --tabs=0.0 --debug=0 --labels=0 --labels=1 --reference=100 --inner_corners=loop --burn=0.15
Url: http://www.festi.info/IntegratedHingeBox?FingerJoint_angle=90.0&amp;FingerJoint_style=rectangular&amp;FingerJoint_surroundingspaces=2.0&amp;FingerJoint_edge_width=1.0&amp;FingerJoint_extra_length=0.0&amp;FingerJoint_finger=2.0&amp;FingerJoint_play=0.0&amp;FingerJoint_space=2.0&amp;FingerJoint_width=1.0&amp;ChestHinge_hinge_strength=1.0&amp;ChestHinge_pin_height=2.0&amp;ChestHinge_play=0.1&amp;x=100.0&amp;y=100.0&amp;h=100.0&amp;outside=0&amp;outside=1&amp;lidheight=40.0&amp;thickness=5&amp;format=svg&amp;tabs=0.0&amp;debug=0&amp;labels=0&amp;labels=1&amp;reference=100&amp;inner_corners=loop&amp;burn=0.15&amp;render=1
SettingsUrl: http://www.festi.info/IntegratedHingeBox?FingerJoint_angle=90.0&amp;FingerJoint_style=rectangular&amp;FingerJoint_surroundingspaces=2.0&amp;FingerJoint_edge_width=1.0&amp;FingerJoint_extra_length=0.0&amp;FingerJoint_finger=2.0&amp;FingerJoint_play=0.0&amp;FingerJoint_space=2.0&amp;FingerJoint_width=1.0&amp;ChestHinge_hinge_strength=1.0&amp;ChestHinge_pin_height=2.0&amp;ChestHinge_play=0.1&amp;x=100.0&amp;y=100.0&amp;h=100.0&amp;outside=0&amp;outside=1&amp;lidheight=40.0&amp;thickness=5&amp;format=svg&amp;tabs=0.0&amp;debug=0&amp;labels=0&amp;labels=1&amp;reference=100&amp;inner_corners=loop&amp;burn=0.15
</dc:description>
</cc:Work></rdf:RDF></metadata>
<g id="p-0" style="fill:none;stroke-linecap:round;stroke-linejoin:round;">
  <path d="M 24.859 807.800 H 124.859 V 797.800 H 24.859 V 807.800 Z" stroke="rgb(0,0,0)" stroke-width="0.30" />
  <text alignment-baseline="hanging" font-size="10px" style="font-family: sans-serif ; font-weight: normal; font-style: normal; fill: rgb(0,0,0)" text-anchor="middle" transform="matrix( 1.000 0.000 0.000 1.000 74.859 797.800 )">100mm</text>
</g>
<g id="p-1" style="fill:none;stroke-linecap:round;stroke-linejoin:round;">
  <path d="M 29.859 795.000 H 39.859 C 39.942 795.000 40.009 794.933 40.009 794.850 V 790.000 C 40.009 789.850 39.859 790.000 40.009 790.000 H 49.709 C 49.859 790.000 49.709 789.850 49.709 790.000 V 794.850 C 49.709 794.933 49.776 795.000 49.859 795.000 H 59.859 C 59.942 795.000 60.009 794.933 60.009 794.850 V 790.000 C 60.009 789.850 59.859 790.000 60.009 790.000 H 69.709 C 69.859 790.000 69.709 789.850 69.709 790.000 V 794.850 C 69.709 794.933 69.776 795.000 69.859 795.000 H 79.859 C 79.942 795.000 80.009 794.933 80.009 794.850 V 790.000 C 80.009 789.850 79.859 790.000 80.009 790.000 H 89.709 C 89.859 790.000 89.709 789.850 89.709 790.000 V 794.850 C 89.709 794.933 89.776 795.000 89.859 795.000 H 99.859 C 99.942 795.000 100.009 794.933 100.009 794.850 V 790.000 C 100.009 789.850 99.859 790.000 100.009 790.000 H 109.709 C 109.859 790.000 109.709 789.850 109.709 790.000 V 794.850 C 109.709 794.933 109.776 795.000 109.859 795.000 H 119.859 C 119.942 795.000 120.009 794.933 120.009 794.850 V 789.850 V 780.000 C 120.009 779.850 119.859 780.000 120.009 780.000 H 124.859 C 124.942 780.000 125.009 779.933 125.009 779.850 V 769.850 C 125.009 769.767 124.942 769.700 124.859 769.700 H 120.009 C 119.859 769.700 120.009 769.850 120.009 769.700 V 760.000 C 120.009 759.850 119.859 760.000 120.009 760.000 H 124.859 C 124.942 760.000 125.009 759.933 125.009 759.850 V 749.850 C 125.009 749.767 124.942 749.700 124.859 749.700 H 120.009 C 119.859 749.700 120.009 749.850 120.009 749.700 V 740.000 C 120.009 739.850 119.859 740.000 120.009 740.000 H 124.859 C 124.942 740.000 125.009 739.933 125.009 739.850 V 729.850 C 125.009 729.767 124.942 729.700 124.859 729.700 H 120.009 C 119.859 729.700 120.009 729.850 120.009 729.700 V 720.000 C 120.009 719.850 119.859 720.000 120.009 720.000 H 124.859 C 124.942 720.000 125.009 719.933 125.009 719.850 V 709.850 C 125.009 709.767 124.942 709.700 124.859 709.700 H 120.009 C 119.859 709.700 120.009 709.850 120.009 709.700 V 699.850 C 120.009 699.767 119.942 699.700 119.859 699.700 H 39.859 C 39.942 699.700 40.009 699.767 40.009 699.850 C 40.009 696.854 39.120 693.925 37.456 691.433 C 35.791 688.942 33.425 687.000 30.657 685.853 C 27.888 684.707 24.842 684.407 21.903 684.991 C 18.964 685.576 16.265 687.019 14.146 689.137 C 12.027 691.256 10.585 693.956 10.000 696.894 C 9.415 699.833 9.715 702.879 10.862 705.648 C 12.009 708.416 13.951 710.782 16.442 712.447 C 18.933 714.111 21.863 715.000 24.859 715.000 H 29.859 C 29.833 715.000 29.807 714.993 29.784 714.980 C 29.761 714.967 29.742 714.948 29.729 714.925 C 29.716 714.902 29.709 714.876 29.709 714.850 C 29.709 714.824 29.716 714.798 29.729 714.775 C 29.742 714.752 29.761 714.733 29.784 714.720 C 29.807 714.707 29.833 714.700 29.859 714.700 C 29.776 714.700 29.709 714.767 29.709 714.850 V 727.200 C 29.709 727.350 29.859 727.200 29.709 727.200 H 24.859 C 24.776 727.200 24.709 727.267 24.709 727.350 V 737.350 C 24.709 737.433 24.776 737.500 24.859 737.500 H 29.709 C 29.859 737.500 29.709 737.350 29.709 737.500 V 747.200 C 29.709 747.350 29.859 747.200 29.709 747.200 H 24.859 C 24.776 747.200 24.709 747.267 24.709 747.350 V 757.350 C 24.709 757.433 24.776 757.500 24.859 757.500 H 29.709 C 29.859 757.500 29.709 757.350 29.709 757.500 V 767.200 C 29.709 767.350 29.859 767.200 29.709 767.200 H 24.859 C 24.776 767.200 24.709 767.267 24.709 767.350 V 777.350 C 24.709 777.433 24.776 777.500 24.859 777.500 H 29.709 C 29.859 777.500 29.709 777.350 29.709 777.500 V 789.850 V 794.850 C 29.709 794.933 29.776 795.000 29.859 795.000 Z" stroke="rgb(0,0,0)" stroke-width="0.30" />
  <path d="M 15.009 699.700 C 15.009 697.812 15.552 695.963 16.573 694.375 C 17.593 692.786 19.049 691.525 20.767 690.740 C 22.485 689.956 24.392 689.682 26.261 689.950 C 28.130 690.219 29.882 691.019 31.309 692.256 C 32.736 693.492 33.778 695.113 34.310 696.925 C 34.842 698.737 34.842 700.663 34.310 702.475 C 33.778 704.287 32.736 705.908 31.309 707.144 C 29.882 708.381 28.130 709.181 26.261 709.450 C 24.392 709.718 22.485 709.444 20.767 708.660 C 19.049 707.875 17.593 706.614 16.573 705.025 C 15.552 703.437 15.009 701.588 15.009 699.700 Z" stroke="rgb(0,0,255)" stroke-width="0.30" />
  <path d="M 27.359 692.367 H 29.709 C 29.859 692.367 29.709 692.217 29.709 692.367 V 699.550 C 29.709 699.700 29.859 699.550 29.709 699.550 H 25.009 C 24.859 699.550 25.009 699.700 25.009 699.550 V 692.367 C 25.009 692.217 24.859 692.367 25.009 692.367 H 27.359 Z" stroke="rgb(0,0,255)" stroke-width="0.30" />
</g>
<g id="p-2" style="fill:none;stroke-linecap:round;stroke-linejoin:round;">
  <path d="M 29.859 681.700 C 29.833 681.700 29.807 681.693 29.784 681.680 C 29.761 681.667 29.742 681.648 29.729 681.625 C 29.716 681.602 29.709 681.576 29.709 681.550 C 29.709 681.524 29.716 681.498 29.729 681.475 C 29.742 681.452 29.761 681.433 29.784 681.420 C 29.807 681.407 29.833 681.400 29.859 681.400 H 24.859 C 24.885 681.400 24.911 681.407 24.934 681.420 C 24.957 681.433 24.976 681.452 24.989 681.475 C 25.002 681.498 25.009 681.524 25.009 681.550 C 25.009 681.576 25.002 681.602 24.989 681.625 C 24.976 681.648 24.957 681.667 24.934 681.680 C 24.911 681.693 24.885 681.700 24.859 681.700 C 27.553 681.700 30.200 682.409 32.534 683.757 C 34.867 685.104 36.805 687.042 38.152 689.375 C 39.500 691.708 40.209 694.356 40.209 697.050 C 40.209 697.133 40.276 697.200 40.359 697.200 H 119.859 C 119.942 697.200 120.009 697.133 120.009 697.050 V 682.200 C 120.009 682.050 119.859 682.200 120.009 682.200 H 124.859 C 124.942 682.200 125.009 682.133 125.009 682.050 V 672.050 C 125.009 671.967 124.942 671.900 124.859 671.900 H 120.009 C 119.859 671.900 120.009 672.050 120.009 671.900 V 657.050 V 652.050 C 120.009 651.967 119.942 651.900 119.859 651.900 H 109.859 C 109.776 651.900 109.709 651.967 109.709 652.050 V 656.900 C 109.709 657.050 109.859 656.900 109.709 656.900 H 100.009 C 99.859 656.900 100.009 657.050 100.009 656.900 V 652.050 C 100.009 651.967 99.942 651.900 99.859 651.900 H 89.859 C 89.776 651.900 89.709 651.967 89.709 652.050 V 656.900 C 89.709 657.050 89.859 656.900 89.709 656.900 H 80.009 C 79.859 656.900 80.009 657.050 80.009 656.900 V 652.050 C 80.009 651.967 79.942 651.900 79.859 651.900 H 69.859 C 69.776 651.900 69.709 651.967 69.709 652.050 V 656.900 C 69.709 657.050 69.859 656.900 69.709 656.900 H 60.009 C 59.859 656.900 60.009 657.050 60.009 656.900 V 652.050 C 60.009 651.967 59.942 651.900 59.859 651.900 H 49.859 C 49.776 651.900 49.709 651.967 49.709 652.050 V 656.900 C 49.709 657.050 49.859 656.900 49.709 656.900 H 40.009 C 39.859 656.900 40.009 657.050 40.009 656.900 V 652.050 C 40.009 651.967 39.942 651.900 39.859 651.900 H 29.859 C 29.776 651.900 29.709 651.967 29.709 652.050 V 657.050 V 669.300 V 681.550 C 29.709 681.633 29.776 681.700 29.859 681.700 Z" stroke="rgb(0,0,0)" stroke-width="0.30" />
</g>
<g id="p-3" style="fill:none;stroke-linecap:round;stroke-linejoin:round;">
  <path d="M 29.859 649.400 H 39.859 C 39.942 649.400 40.009 649.333 40.009 649.250 V 644.400 C 40.009 644.250 39.859 644.400 40.009 644.400 H 49.709 C 49.859 644.400 49.709 644.250 49.709 644.400 V 649.250 C 49.709 649.333 49.776 649.400 49.859 649.400 H 59.859 C 59.942 649.400 60.009 649.333 60.009 649.250 V 644.400 C 60.009 644.250 59.859 644.400 60.009 644.400 H 69.709 C 69.859 644.400 69.709 644.250 69.709 644.400 V 649.250 C 69.709 649.333 69.776 649.400 69.859 649.400 H 79.859 C 79.942 649.400 80.009 649.333 80.009 649.250 V 644.400 C 80.009 644.250 79.859 644.400 80.009 644.400 H 89.709 C 89.859 644.400 89.709 644.250 89.709 644.400 V 649.250 C 89.709 649.333 89.776 649.400 89.859 649.400 H 99.859 C 99.942 649.400 100.009 649.333 100.009 649.250 V 644.400 C 100.009 644.250 99.859 644.400 100.009 644.400 H 109.709 C 109.859 644.400 109.709 644.250 109.709 644.400 V 649.250 C 109.709 649.333 109.776 649.400 109.859 649.400 H 119.859 C 119.942 649.400 120.009 649.333 120.009 649.250 V 644.250 V 631.900 C 120.009 631.750 119.859 631.900 120.009 631.900 H 124.859 C 124.942 631.900 125.009 631.833 125.009 631.750 V 621.750 C 125.009 621.667 124.942 621.600 124.859 621.600 H 120.009 C 119.859 621.600 120.009 621.750 120.009 621.600 V 611.900 C 120.009 611.750 119.859 611.900 120.009 611.900 H 124.859 C 124.942 611.900 125.009 611.833 125.009 611.750 V 601.750 C 125.009 601.667 124.942 601.600 124.859 601.600 H 120.009 C 119.859 601.600 120.009 601.750 120.009 601.600 V 591.900 C 120.009 591.750 119.859 591.900 120.009 591.900 H 124.859 C 124.942 591.900 125.009 591.833 125.009 591.750 V 581.750 C 125.009 581.667 124.942 581.600 124.859 581.600 H 120.009 C 119.859 581.600 120.009 581.750 120.009 581.600 V 569.250 C 120.009 569.167 119.942 569.100 119.859 569.100 C 119.885 569.100 119.911 569.107 119.934 569.120 C 119.957 569.133 119.976 569.152 119.989 569.175 C 120.002 569.198 120.009 569.224 120.009 569.250 C 120.009 569.276 120.002 569.302 119.989 569.325 C 119.976 569.348 119.957 569.367 119.934 569.380 C 119.911 569.393 119.885 569.400 119.859 569.400 H 124.859 C 127.855 569.400 130.784 568.511 133.276 566.847 C 135.767 565.182 137.709 562.816 138.856 560.048 C 140.002 557.279 140.302 554.233 139.718 551.294 C 139.133 548.356 137.690 545.656 135.572 543.537 C 133.453 541.419 130.753 539.976 127.815 539.391 C 124.876 538.807 121.830 539.107 119.061 540.253 C 116.293 541.400 113.927 543.342 112.262 545.833 C 110.597 548.325 109.709 551.254 109.709 554.250 C 109.709 554.167 109.776 554.100 109.859 554.100 H 29.859 C 29.776 554.100 29.709 554.167 29.709 554.250 V 564.100 C 29.709 564.250 29.859 564.100 29.709 564.100 H 24.859 C 24.776 564.100 24.709 564.167 24.709 564.250 V 574.250 C 24.709 574.333 24.776 574.400 24.859 574.400 H 29.709 C 29.859 574.400 29.709 574.250 29.709 574.400 V 584.100 C 29.709 584.250 29.859 584.100 29.709 584.100 H 24.859 C 24.776 584.100 24.709 584.167 24.709 584.250 V 594.250 C 24.709 594.333 24.776 594.400 24.859 594.400 H 29.709 C 29.859 594.400 29.709 594.250 29.709 594.400 V 604.100 C 29.709 604.250 29.859 604.100 29.709 604.100 H 24.859 C 24.776 604.100 24.709 604.167 24.709 604.250 V 614.250 C 24.709 614.333 24.776 614.400 24.859 614.400 H 29.709 C 29.859 614.400 29.709 614.250 29.709 614.400 V 624.100 C 29.709 624.250 29.859 624.100 29.709 624.100 H 24.859 C 24.776 624.100 24.709 624.167 24.709 624.250 V 634.250 C 24.709 634.333 24.776 634.400 24.859 634.400 H 29.709 C 29.859 634.400 29.709 634.250 29.709 634.400 V 644.250 V 649.250 C 29.709 649.333 29.776 649.400 29.859 649.400 Z" stroke="rgb(0,0,0)" stroke-width="0.30" />
  <path d="M 115.009 554.100 C 115.009 552.212 115.552 550.363 116.573 548.775 C 117.593 547.186 119.049 545.925 120.767 545.140 C 122.485 544.356 124.392 544.082 126.261 544.350 C 128.130 544.619 129.882 545.419 131.309 546.656 C 132.736 547.892 133.778 549.513 134.310 551.325 C 134.842 553.137 134.842 555.063 134.310 556.875 C 133.778 558.687 132.736 560.308 131.309 561.544 C 129.882 562.781 128.130 563.581 126.261 563.850 C 124.392 564.118 122.485 563.844 120.767 563.060 C 119.049 562.275 117.593 561.014 116.573 559.425 C 115.552 557.837 115.009 555.988 115.009 554.100 Z" stroke="rgb(0,0,255)" stroke-width="0.30" />
  <path d="M 122.359 546.767 H 124.709 C 124.859 546.767 124.709 546.617 124.709 546.767 V 553.950 C 124.709 554.100 124.859 553.950 124.709 553.950 H 120.009 C 119.859 553.950 120.009 554.100 120.009 553.950 V 546.767 C 120.009 546.617 119.859 546.767 120.009 546.767 H 122.359 Z" stroke="rgb(0,0,255)" stroke-width="0.30" />
</g>
<g id="p-4" style="fill:none;stroke-linecap:round;stroke-linejoin:round;">
  <path d="M 29.859 551.600 H 109.359 C 109.442 551.600 109.509 551.533 109.509 551.450 C 109.509 548.756 110.218 546.108 111.565 543.775 C 112.913 541.442 114.850 539.504 117.184 538.157 C 119.517 536.809 122.164 536.100 124.859 536.100 C 124.833 536.100 124.807 536.093 124.784 536.080 C 124.761 536.067 124.742 536.048 124.729 536.025 C 124.716 536.002 124.709 535.976 124.709 535.950 C 124.709 535.924 124.716 535.898 124.729 535.875 C 124.742 535.852 124.761 535.833 124.784 535.820 C 124.807 535.807 124.833 535.800 124.859 535.800 H 119.859 C 119.885 535.800 119.911 535.807 119.934 535.820 C 119.957 535.833 119.976 535.852 119.989 535.875 C 120.002 535.898 120.009 535.924 120.009 535.950 C 120.009 535.976 120.002 536.002 119.989 536.025 C 119.976 536.048 119.957 536.067 119.934 536.080 C 119.911 536.093 119.885 536.100 119.859 536.100 C 119.942 536.100 120.009 536.033 120.009 535.950 V 523.700 V 511.450 V 506.450 C 120.009 506.367 119.942 506.300 119.859 506.300 H 109.859 C 109.776 506.300 109.709 506.367 109.709 506.450 V 511.300 C 109.709 511.450 109.859 511.300 109.709 511.300 H 100.009 C 99.859 511.300 100.009 511.450 100.009 511.300 V 506.450 C 100.009 506.367 99.942 506.300 99.859 506.300 H 89.859 C 89.776 506.300 89.709 506.367 89.709 506.450 V 511.300 C 89.709 511.450 89.859 511.300 89.709 511.300 H 80.009 C 79.859 511.300 80.009 511.450 80.009 511.300 V 506.450 C 80.009 506.367 79.942 506.300 79.859 506.300 H 69.859 C 69.776 506.300 69.709 506.367 69.709 506.450 V 511.300 C 69.709 511.450 69.859 511.300 69.709 511.300 H 60.009 C 59.859 511.300 60.009 511.450 60.009 511.300 V 506.450 C 60.009 506.367 59.942 506.300 59.859 506.300 H 49.859 C 49.776 506.300 49.709 506.367 49.709 506.450 V 511.300 C 49.709 511.450 49.859 511.300 49.709 511.300 H 40.009 C 39.859 511.300 40.009 511.450 40.009 511.300 V 506.450 C 40.009 506.367 39.942 506.300 39.859 506.300 H 29.859 C 29.776 506.300 29.709 506.367 29.709 506.450 V 511.450 V 526.300 C 29.709 526.450 29.859 526.300 29.709 526.300 H 24.859 C 24.776 526.300 24.709 526.367 24.709 526.450 V 536.450 C 24.709 536.533 24.776 536.600 24.859 536.600 H 29.709 C 29.859 536.600 29.709 536.450 29.709 536.600 V 551.450 C 29.709 551.533 29.776 551.600 29.859 551.600 Z" stroke="rgb(0,0,0)" stroke-width="0.30" />
</g>
<g id="p-5" style="fill:none;stroke-linecap:round;stroke-linejoin:round;">
  <path d="M 29.859 503.800 H 39.859 C 39.942 503.800 40.009 503.733 40.009 503.650 V 498.800 C 40.009 498.650 39.859 498.800 40.009 498.800 H 49.709 C 49.859 498.800 49.709 498.650 49.709 498.800 V 503.650 C 49.709 503.733 49.776 503.800 49.859 503.800 H 59.859 C 59.942 503.800 60.009 503.733 60.009 503.650 V 498.800 C 60.009 498.650 59.859 498.800 60.009 498.800 H 69.709 C 69.859 498.800 69.709 498.650 69.709 498.800 V 503.650 C 69.709 503.733 69.776 503.800 69.859 503.800 H 79.859 C 79.942 503.800 80.009 503.733 80.009 503.650 V 498.800 C 80.009 498.650 79.859 498.800 80.009 498.800 H 89.709 C 89.859 498.800 89.709 498.650 89.709 498.800 V 503.650 C 89.709 503.733 89.776 503.800 89.859 503.800 H 99.859 C 99.942 503.800 100.009 503.733 100.009 503.650 V 498.800 C 100.009 498.650 99.859 498.800 100.009 498.800 H 109.709 C 109.859 498.800 109.709 498.650 109.709 498.800 V 503.650 C 109.709 503.733 109.776 503.800 109.859 503.800 H 119.859 H 124.859 C 124.942 503.800 125.009 503.733 125.009 503.650 V 498.650 V 488.650 C 125.009 488.567 124.942 488.500 124.859 488.500 H 120.009 C 119.859 488.500 120.009 488.650 120.009 488.500 V 478.800 C 120.009 478.650 119.859 478.800 120.009 478.800 H 124.859 C 124.942 478.800 125.009 478.733 125.009 478.650 V 468.650 C 125.009 468.567 124.942 468.500 124.859 468.500 H 120.009 C 119.859 468.500 120.009 468.650 120.009 468.500 V 458.800 C 120.009 458.650 119.859 458.800 120.009 458.800 H 124.859 C 124.942 458.800 125.009 458.733 125.009 458.650 V 448.650 C 125.009 448.567 124.942 448.500 124.859 448.500 H 120.009 C 119.859 448.500 120.009 448.650 120.009 448.500 V 438.800 C 120.009 438.650 119.859 438.800 120.009 438.800 H 124.859 C 124.942 438.800 125.009 438.733 125.009 438.650 V 428.650 C 125.009 428.567 124.942 428.500 124.859 428.500 H 120.009 C 119.859 428.500 120.009 428.650 120.009 428.500 V 418.800 C 120.009 418.650 119.859 418.800 120.009 418.800 H 124.859 C 124.942 418.800 125.009 418.733 125.009 418.650 V 408.650 C 125.009 408.567 124.942 408.500 124.859 408.500 H 119.859 H 29.859 H 24.859 C 24.776 408.500 24.709 408.567 24.709 408.650 V 418.650 C 24.709 418.733 24.776 418.800 24.859 418.800 H 29.709 C 29.859 418.800 29.709 418.650 29.709 418.800 V 428.500 C 29.709 428.650 29.859 428.500 29.709 428.500 H 24.859 C 24.776 428.500 24.709 428.567 24.709 428.650 V 438.650 C 24.709 438.733 24.776 438.800 24.859 438.800 H 29.709 C 29.859 438.800 29.709 438.650 29.709 438.800 V 448.500 C 29.709 448.650 29.859 448.500 29.709 448.500 H 24.859 C 24.776 448.500 24.709 448.567 24.709 448.650 V 458.650 C 24.709 458.733 24.776 458.800 24.859 458.800 H 29.709 C 29.859 458.800 29.709 458.650 29.709 458.800 V 468.500 C 29.709 468.650 29.859 468.500 29.709 468.500 H 24.859 C 24.776 468.500 24.709 468.567 24.709 468.650 V 478.650 C 24.709 478.733 24.776 478.800 24.859 478.800 H 29.709 C 29.859 478.800 29.709 478.650 29.709 478.800 V 488.500 C 29.709 488.650 29.859 488.500 29.709 488.500 H 24.859 C 24.776 488.500 24.709 488.567 24.709 488.650 V 498.650 V 503.650 C 24.709 503.733 24.776 503.800 24.859 503.800 H 29.859 Z" stroke="rgb(0,0,0)" stroke-width="0.30" />
</g>
<g id="p-6" style="fill:none;stroke-linecap:round;stroke-linejoin:round;">
  <path d="M 29.859 406.000 H 39.859 C 39.942 406.000 40.009 405.933 40.009 405.850 V 401.000 C 40.009 400.850 39.859 401.000 40.009 401.000 H 49.709 C 49.859 401.000 49.709 400.850 49.709 401.000 V 405.850 C 49.709 405.933 49.776 406.000 49.859 406.000 H 59.859 C 59.942 406.000 60.009 405.933 60.009 405.850 V 401.000 C 60.009 400.850 59.859 401.000 60.009 401.000 H 69.709 C 69.859 401.000 69.709 400.850 69.709 401.000 V 405.850 C 69.709 405.933 69.776 406.000 69.859 406.000 H 79.859 C 79.942 406.000 80.009 405.933 80.009 405.850 V 401.000 C 80.009 400.850 79.859 401.000 80.009 401.000 H 89.709 C 89.859 401.000 89.709 400.850 89.709 401.000 V 405.850 C 89.709 405.933 89.776 406.000 89.859 406.000 H 99.859 C 99.942 406.000 100.009 405.933 100.009 405.850 V 401.000 C 100.009 400.850 99.859 401.000 100.009 401.000 H 109.709 C 109.859 401.000 109.709 400.850 109.709 401.000 V 405.850 C 109.709 405.933 109.776 406.000 109.859 406.000 H 119.859 H 124.859 C 124.942 406.000 125.009 405.933 125.009 405.850 V 400.850 V 388.350 C 125.009 388.267 124.942 388.200 124.859 388.200 H 120.009 C 119.859 388.200 120.009 388.350 120.009 388.200 V 378.500 C 120.009 378.350 119.859 378.500 120.009 378.500 H 124.859 C 124.942 378.500 125.009 378.433 125.009 378.350 V 368.350 C 125.009 368.267 124.942 368.200 124.859 368.200 H 120.009 C 119.859 368.200 120.009 368.350 120.009 368.200 V 358.500 C 120.009 358.350 119.859 358.500 120.009 358.500 H 124.859 C 124.942 358.500 125.009 358.433 125.009 358.350 V 348.350 C 125.009 348.267 124.942 348.200 124.859 348.200 H 120.009 C 119.859 348.200 120.009 348.350 120.009 348.200 V 338.500 C 120.009 338.350 119.859 338.500 120.009 338.500 H 124.859 C 124.942 338.500 125.009 338.433 125.009 338.350 V 325.850 C 125.009 325.767 124.942 325.700 124.859 325.700 H 120.009 C 119.859 325.700 120.009 325.850 120.009 325.700 V 310.850 C 120.009 310.767 119.942 310.700 119.859 310.700 H 29.859 C 29.776 310.700 29.709 310.767 29.709 310.850 V 325.700 C 29.709 325.850 29.859 325.700 29.709 325.700 H 24.859 C 24.776 325.700 24.709 325.767 24.709 325.850 V 338.350 C 24.709 338.433 24.776 338.500 24.859 338.500 H 29.709 C 29.859 338.500 29.709 338.350 29.709 338.500 V 348.200 C 29.709 348.350 29.859 348.200 29.709 348.200 H 24.859 C 24.776 348.200 24.709 348.267 24.709 348.350 V 358.350 C 24.709 358.433 24.776 358.500 24.859 358.500 H 29.709 C 29.859 358.500 29.709 358.350 29.709 358.500 V 368.200 C 29.709 368.350 29.859 368.200 29.709 368.200 H 24.859 C 24.776 368.200 24.709 368.267 24.709 368.350 V 378.350 C 24.709 378.433 24.776 378.500 24.859 378.500 H 29.709 C 29.859 378.500 29.709 378.350 29.709 378.500 V 388.200 C 29.709 388.350 29.859 388.200 29.709 388.200 H 24.859 C 24.776 388.200 24.709 388.267 24.709 388.350 V 400.850 V 405.850 C 24.709 405.933 24.776 406.000 24.859 406.000 H 29.859 Z" stroke="rgb(0,0,0)" stroke-width="0.30" />
</g>
<g id="p-7" style="fill:none;stroke-linecap:round;stroke-linejoin:round;">
  <path d="M 29.859 308.200 H 39.859 C 39.942 308.200 40.009 308.133 40.009 308.050 V 303.200 C 40.009 303.050 39.859 303.200 40.009 303.200 H 49.709 C 49.859 303.200 49.709 303.050 49.709 303.200 V 308.050 C 49.709 308.133 49.776 308.200 49.859 308.200 H 59.859 C 59.942 308.200 60.009 308.133 60.009 308.050 V 303.200 C 60.009 303.050 59.859 303.200 60.009 303.200 H 69.709 C 69.859 303.200 69.709 303.050 69.709 303.200 V 308.050 C 69.709 308.133 69.776 308.200 69.859 308.200 H 79.859 C 79.942 308.200 80.009 308.133 80.009 308.050 V 303.200 C 80.009 303.050 79.859 303.200 80.009 303.200 H 89.709 C 89.859 303.200 89.709 303.050 89.709 303.200 V 308.050 C 89.709 308.133 89.776 308.200 89.859 308.200 H 99.859 C 99.942 308.200 100.009 308.133 100.009 308.050 V 303.200 C 100.009 303.050 99.859 303.200 100.009 303.200 H 109.709 C 109.859 303.200 109.709 303.050 109.709 303.200 V 308.050 C 109.709 308.133 109.776 308.200 109.859 308.200 H 119.859 H 124.859 C 124.942 308.200 125.009 308.133 125.009 308.050 V 303.050 V 288.050 C 125.009 287.967 124.942 287.900 124.859 287.900 H 120.009 C 119.859 287.900 120.009 288.050 120.009 287.900 V 278.200 C 120.009 278.050 119.859 278.200 120.009 278.200 H 124.859 C 124.942 278.200 125.009 278.133 125.009 278.050 V 263.050 C 125.009 262.967 124.942 262.900 124.859 262.900 H 119.859 H 29.859 H 24.859 C 24.776 262.900 24.709 262.967 24.709 263.050 V 278.050 C 24.709 278.133 24.776 278.200 24.859 278.200 H 29.709 C 29.859 278.200 29.709 278.050 29.709 278.200 V 287.900 C 29.709 288.050 29.859 287.900 29.709 287.900 H 24.859 C 24.776 287.900 24.709 287.967 24.709 288.050 V 303.050 V 308.050 C 24.709 308.133 24.776 308.200 24.859 308.200 H 29.859 Z" stroke="rgb(0,0,0)" stroke-width="0.30" />
</g>
<g id="p-8" style="fill:none;stroke-linecap:round;stroke-linejoin:round;">
  <path d="M 29.859 260.400 H 39.859 C 39.942 260.400 40.009 260.333 40.009 260.250 V 255.400 C 40.009 255.250 39.859 255.400 40.009 255.400 H 49.709 C 49.859 255.400 49.709 255.250 49.709 255.400 V 260.250 C 49.709 260.333 49.776 260.400 49.859 260.400 H 59.859 C 59.942 260.400 60.009 260.333 60.009 260.250 V 255.400 C 60.009 255.250 59.859 255.400 60.009 255.400 H 69.709 C 69.859 255.400 69.709 255.250 69.709 255.400 V 260.250 C 69.709 260.333 69.776 260.400 69.859 260.400 H 79.859 C 79.942 260.400 80.009 260.333 80.009 260.250 V 255.400 C 80.009 255.250 79.859 255.400 80.009 255.400 H 89.709 C 89.859 255.400 89.709 255.250 89.709 255.400 V 260.250 C 89.709 260.333 89.776 260.400 89.859 260.400 H 99.859 C 99.942 260.400 100.009 260.333 100.009 260.250 V 255.400 C 100.009 255.250 99.859 255.400 100.009 255.400 H 109.709 C 109.859 255.400 109.709 255.250 109.709 255.400 V 260.250 C 109.709 260.333 109.776 260.400 109.859 260.400 H 119.859 H 124.859 C 124.942 260.400 125.009 260.333 125.009 260.250 V 255.250 V 243.000 V 230.750 C 125.009 230.667 124.942 230.600 124.859 230.600 H 120.009 C 119.859 230.600 120.009 230.750 120.009 230.600 V 223.383 C 120.009 223.233 119.859 223.383 120.009 223.383 H 124.859 C 124.942 223.383 125.009 223.316 125.009 223.233 V 215.750 C 125.009 215.667 124.942 215.600 124.859 215.600 H 24.859 C 24.776 215.600 24.709 215.667 24.709 215.750 V 223.233 C 24.709 223.316 24.776 223.383 24.859 223.383 H 29.709 C 29.859 223.383 29.709 223.233 29.709 223.383 V 230.600 C 29.709 230.750 29.859 230.600 29.709 230.600 H 24.859 C 24.776 230.600 24.709 230.667 24.709 230.750 V 243.000 V 255.250 V 260.250 C 24.709 260.333 24.776 260.400 24.859 260.400 H 29.859 Z" stroke="rgb(0,0,0)" stroke-width="0.30" />
</g>
<g id="p-9" style="fill:none;stroke-linecap:round;stroke-linejoin:round;">
  <path d="M 29.859 208.100 H 39.709 C 39.859 208.100 39.709 207.950 39.709 208.100 V 212.950 C 39.709 213.033 39.776 213.100 39.859 213.100 H 49.859 C 49.942 213.100 50.009 213.033 50.009 212.950 V 208.100 C 50.009 207.950 49.859 208.100 50.009 208.100 H 59.709 C 59.859 208.100 59.709 207.950 59.709 208.100 V 212.950 C 59.709 213.033 59.776 213.100 59.859 213.100 H 69.859 C 69.942 213.100 70.009 213.033 70.009 212.950 V 208.100 C 70.009 207.950 69.859 208.100 70.009 208.100 H 79.709 C 79.859 208.100 79.709 207.950 79.709 208.100 V 212.950 C 79.709 213.033 79.776 213.100 79.859 213.100 H 89.859 C 89.942 213.100 90.009 213.033 90.009 212.950 V 208.100 C 90.009 207.950 89.859 208.100 90.009 208.100 H 99.709 C 99.859 208.100 99.709 207.950 99.709 208.100 V 212.950 C 99.709 213.033 99.776 213.100 99.859 213.100 H 109.859 C 109.942 213.100 110.009 213.033 110.009 212.950 V 208.100 C 110.009 207.950 109.859 208.100 110.009 208.100 H 119.859 C 119.942 208.100 120.009 208.033 120.009 207.950 V 198.100 C 120.009 197.950 119.859 198.100 120.009 198.100 H 124.859 C 124.942 198.100 125.009 198.033 125.009 197.950 V 187.950 C 125.009 187.867 124.942 187.800 124.859 187.800 H 120.009 C 119.859 187.800 120.009 187.950 120.009 187.800 V 178.100 C 120.009 177.950 119.859 178.100 120.009 178.100 H 124.859 C 124.942 178.100 125.009 178.033 125.009 177.950 V 167.950 C 125.009 167.867 124.942 167.800 124.859 167.800 H 120.009 C 119.859 167.800 120.009 167.950 120.009 167.800 V 158.100 C 120.009 157.950 119.859 158.100 120.009 158.100 H 124.859 C 124.942 158.100 125.009 158.033 125.009 157.950 V 147.950 C 125.009 147.867 124.942 147.800 124.859 147.800 H 120.009 C 119.859 147.800 120.009 147.950 120.009 147.800 V 138.100 C 120.009 137.950 119.859 138.100 120.009 138.100 H 124.859 C 124.942 138.100 125.009 138.033 125.009 137.950 V 127.950 C 125.009 127.867 124.942 127.800 124.859 127.800 H 120.009 C 119.859 127.800 120.009 127.950 120.009 127.800 V 117.950 C 120.009 117.867 119.942 117.800 119.859 117.800 H 110.009 C 109.859 117.800 110.009 117.950 110.009 117.800 V 112.950 C 110.009 112.867 109.942 112.800 109.859 112.800 H 99.859 C 99.776 112.800 99.709 112.867 99.709 112.950 V 117.800 C 99.709 117.950 99.859 117.800 99.709 117.800 H 90.009 C 89.859 117.800 90.009 117.950 90.009 117.800 V 112.950 C 90.009 112.867 89.942 112.800 89.859 112.800 H 79.859 C 79.776 112.800 79.709 112.867 79.709 112.950 V 117.800 C 79.709 117.950 79.859 117.800 79.709 117.800 H 70.009 C 69.859 117.800 70.009 117.950 70.009 117.800 V 112.950 C 70.009 112.867 69.942 112.800 69.859 112.800 H 59.859 C 59.776 112.800 59.709 112.867 59.709 112.950 V 117.800 C 59.709 117.950 59.859 117.800 59.709 117.800 H 50.009 C 49.859 117.800 50.009 117.950 50.009 117.800 V 112.950 C 50.009 112.867 49.942 112.800 49.859 112.800 H 39.859 C 39.776 112.800 39.709 112.867 39.709 112.950 V 117.800 C 39.709 117.950 39.859 117.800 39.709 117.800 H 29.859 C 29.776 117.800 29.709 117.867 29.709 117.950 V 127.800 C 29.709 127.950 29.859 127.800 29.709 127.800 H 24.859 C 24.776 127.800 24.709 127.867 24.709 127.950 V 137.950 C 24.709 138.033 24.776 138.100 24.859 138.100 H 29.709 C 29.859 138.100 29.709 137.950 29.709 138.100 V 147.800 C 29.709 147.950 29.859 147.800 29.709 147.800 H 24.859 C 24.776 147.800 24.709 147.867 24.709 147.950 V 157.950 C 24.709 158.033 24.776 158.100 24.859 158.100 H 29.709 C 29.859 158.100 29.709 157.950 29.709 158.100 V 167.800 C 29.709 167.950 29.859 167.800 29.709 167.800 H 24.859 C 24.776 167.800 24.709 167.867 24.709 167.950 V 177.950 C 24.709 178.033 24.776 178.100 24.859 178.100 H 29.709 C 29.859 178.100 29.709 177.950 29.709 178.100 V 187.800 C 29.709 187.950 29.859 187.800 29.709 187.800 H 24.859 C 24.776 187.800 24.709 187.867 24.709 187.950 V 197.950 C 24.709 198.033 24.776 198.100 24.859 198.100 H 29.709 C 29.859 198.100 29.709 197.950 29.709 198.100 V 207.950 C 29.709 208.033 29.776 208.100 29.859 208.100 Z" stroke="rgb(0,0,0)" stroke-width="0.30" />
</g>
<g id="p-10" style="fill:none;stroke-linecap:round;stroke-linejoin:round;">
  <path d="M 29.859 105.300 H 39.709 C 39.859 105.300 39.709 105.150 39.709 105.300 V 110.150 C 39.709 110.233 39.776 110.300 39.859 110.300 H 49.859 C 49.942 110.300 50.009 110.233 50.009 110.150 V 105.300 C 50.009 105.150 49.859 105.300 50.009 105.300 H 59.709 C 59.859 105.300 59.709 105.150 59.709 105.300 V 110.150 C 59.709 110.233 59.776 110.300 59.859 110.300 H 69.859 C 69.942 110.300 70.009 110.233 70.009 110.150 V 105.300 C 70.009 105.150 69.859 105.300 70.009 105.300 H 79.709 C 79.859 105.300 79.709 105.150 79.709 105.300 V 110.150 C 79.709 110.233 79.776 110.300 79.859 110.300 H 89.859 C 89.942 110.300 90.009 110.233 90.009 110.150 V 105.300 C 90.009 105.150 89.859 105.300 90.009 105.300 H 99.709 C 99.859 105.300 99.709 105.150 99.709 105.300 V 110.150 C 99.709 110.233 99.776 110.300 99.859 110.300 H 109.859 C 109.942 110.300 110.009 110.233 110.009 110.150 V 105.300 C 110.009 105.150 109.859 105.300 110.009 105.300 H 119.859 C 119.942 105.300 120.009 105.233 120.009 105.150 V 95.300 C 120.009 95.150 119.859 95.300 120.009 95.300 H 124.859 C 124.942 95.300 125.009 95.233 125.009 95.150 V 85.150 C 125.009 85.067 124.942 85.000 124.859 85.000 H 120.009 C 119.859 85.000 120.009 85.150 120.009 85.000 V 75.300 C 120.009 75.150 119.859 75.300 120.009 75.300 H 124.859 C 124.942 75.300 125.009 75.233 125.009 75.150 V 65.150 C 125.009 65.067 124.942 65.000 124.859 65.000 H 120.009 C 119.859 65.000 120.009 65.150 120.009 65.000 V 55.300 C 120.009 55.150 119.859 55.300 120.009 55.300 H 124.859 C 124.942 55.300 125.009 55.233 125.009 55.150 V 45.150 C 125.009 45.067 124.942 45.000 124.859 45.000 H 120.009 C 119.859 45.000 120.009 45.150 120.009 45.000 V 35.300 C 120.009 35.150 119.859 35.300 120.009 35.300 H 124.859 C 124.942 35.300 125.009 35.233 125.009 35.150 V 25.150 C 125.009 25.067 124.942 25.000 124.859 25.000 H 120.009 C 119.859 25.000 120.009 25.150 120.009 25.000 V 15.150 C 120.009 15.067 119.942 15.000 119.859 15.000 H 110.009 C 109.859 15.000 110.009 15.150 110.009 15.000 V 10.150 C 110.009 10.067 109.942 10.000 109.859 10.000 H 99.859 C 99.776 10.000 99.709 10.067 99.709 10.150 V 15.000 C 99.709 15.150 99.859 15.000 99.709 15.000 H 90.009 C 89.859 15.000 90.009 15.150 90.009 15.000 V 10.150 C 90.009 10.067 89.942 10.000 89.859 10.000 H 79.859 C 79.776 10.000 79.709 10.067 79.709 10.150 V 15.000 C 79.709 15.150 79.859 15.000 79.709 15.000 H 70.009 C 69.859 15.000 70.009 15.150 70.009 15.000 V 10.150 C 70.009 10.067 69.942 10.000 69.859 10.000 H 59.859 C 59.776 10.000 59.709 10.067 59.709 10.150 V 15.000 C 59.709 15.150 59.859 15.000 59.709 15.000 H 50.009 C 49.859 15.000 50.009 15.150 50.009 15.000 V 10.150 C 50.009 10.067 49.942 10.000 49.859 10.000 H 39.859 C 39.776 10.000 39.709 10.067 39.709 10.150 V 15.000 C 39.709 15.150 39.859 15.000 39.709 15.000 H 29.859 C 29.776 15.000 29.709 15.067 29.709 15.150 V 25.000 C 29.709 25.150 29.859 25.000 29.709 25.000 H 24.859 C 24.776 25.000 24.709 25.067 24.709 25.150 V 35.150 C 24.709 35.233 24.776 35.300 24.859 35.300 H 29.709 C 29.859 35.300 29.709 35.150 29.709 35.300 V 45.000 C 29.709 45.150 29.859 45.000 29.709 45.000 H 24.859 C 24.776 45.000 24.709 45.067 24.709 45.150 V 55.150 C 24.709 55.233 24.776 55.300 24.859 55.300 H 29.709 C 29.859 55.300 29.709 55.150 29.709 55.300 V 65.000 C 29.709 65.150 29.859 65.000 29.709 65.000 H 24.859 C 24.776 65.000 24.709 65.067 24.709 65.150 V 75.150 C 24.709 75.233 24.776 75.300 24.859 75.300 H 29.709 C 29.859 75.300 29.709 75.150 29.709 75.300 V 85.000 C 29.709 85.150 29.859 85.000 29.709 85.000 H 24.859 C 24.776 85.000 24.709 85.067 24.709 85.150 V 95.150 C 24.709 95.233 24.776 95.300 24.859 95.300 H 29.709 C 29.859 95.300 29.709 95.150 29.709 95.300 V 105.150 C 29.709 105.233 29.776 105.300 29.859 105.300 Z" stroke="rgb(0,0,0)" stroke-width="0.30" />
</g>
</svg>